Welcome to Sherpa, Peter Meinzinger. Initialization of framework underway.
The local time is Thu Feb 10 15:29:28 2022.
Run_Parameter::Init(): Setting memory limit to 31.1599 GB.
Random::SetSeed(): Seed set to 1234
-----------------------------------------------------------------------------
-----------    Event generation run with SHERPA started .......   -----------
-----------------------------------------------------------------------------
................................................ |       +                   
................................................ ||  |       +  +            
...................................        ....  | |         /   +           
................. ................   _,_ |  ....  ||         +|  +  +        
...............................  __.'  ,\|  ...  ||    /    +|          +    
.............................. (  \    \   ...  | |  |   + + \         +   
.............................  (    \   -/  .... ||       +    |          +  
........ ...................  <S   /()))))~~~~~~~~##     +     /\    +       
............................ (!H   (~~)))))~~~~~~#/     +  +    |  +         
................ ........... (!E   (~~~)))))     /|/    +         +          
............................ (!R   (~~~)))))   |||   + +            +        
..... ...................... (!P    (~~~~)))   /|  + +          +            
............................ (!A>    (~~~~~~~~~##        + +        +        
............................. ~~(!    '~~~~~~~ \       +     + +      +      
...............................  `~~~QQQQQDb //   |         + + +        +   
........................ ..........   IDDDDP||     \  + + + + +             +
....................................  IDDDI||       \                      + 
.................................... IHD HD||         \ + +  + + + + +      +
...................................  IHD ##|            :-) + +\          +  
......... ............... ......... IHI ## /      /   +  + + + +\       +    
................................... IHI/ /       /      + + + +        +     
................................... ## | | /    / + +      + + /      +      
....................... /TT\ .....  ##/ ///  / + + + + + + +/       +        
......................./TTT/T\ ... /TT\/\\\ / + + + + + + +/   \         +   
....................../TTT/TTTT\...|TT/T\\\/   +    ++  + /              
-----------------------------------------------------------------------------

     SHERPA version 2.2.11 (Cho Oyu)
                                                                             
     Authors:        Enrico Bothmann, Stefan Hoeche, Frank Krauss,           
                     Silvan Kuttimalai, Marek Schoenherr, Holger Schulz,     
                     Steffen Schumann, Frank Siegert, Korinna Zapp           
     Former Authors: Timo Fischer, Tanju Gleisberg, Hendrik Hoeth,           
                     Ralf Kuhn, Thomas Laubrich, Andreas Schaelicke,         
                     Jan Winter                                              
                                                                             
     This program uses a lot of genuine and original research work           
     by other people. Users are encouraged to refer to                       
     the various original publications.                                      
                                                                             
     Users are kindly asked to refer to the documentation                    
     published under JHEP 02(2009)007                                        
                                                                             
     Please visit also our homepage                                          
                                                                             
       http://sherpa.hepforge.org                                            
                                                                             
     for news, bugreports, updates and new releases.                         
                                                                             
-----------------------------------------------------------------------------

WARNING: You are using an unsupported development branch.
Git branch HEAD, revision 601b2bbd35dcd698c5606b343e2a4d2d227aa068.

Beam_Spectra_Handler : 
   type = EPA*Monochromatic
   for    e-  ((27.5,0,0,27.5))
   and    P+  ((920,0,0,-920))
CTEQ6_Fortran_Interface::CTEQ6_Fortran_Interface(): Init member 1.
PDF set 'cteq6m' loaded for beam 2 (P+).
Initialized the ISR: (None)*(SF)
CTEQ6_Fortran_Interface::CTEQ6_Fortran_Interface(): Init member 1.
[31mStandard_Model::FixEWParameters([32mEW_SCHEME=1[31m)[0m[31m{[0m
  [34m288:1./aqed->Default()[0m=[32m128.802[0m
  [34m289:csin2thetaW[0m=[32m(0.222928,-0.00110708)[0m
  [34m290:cvev[0m=[32m(243.034,-3.75493)[0m
[31m}[0m
One_Running_AlphaS::One_Running_AlphaS() {
  Setting \alpha_s according to PDF
  perturbative order 1
  \alpha_s(M_Z) = 0.118
}
One_Running_AlphaS::One_Running_AlphaS() {
  Setting \alpha_s according to PDF
  perturbative order 1
  \alpha_s(M_Z) = 0.118
}
 List of Particle Data 
  IDName     kfc  MASS[<kfc>]   WIDTH[<kfc>]  STABLE[<kfc>] MASSIVE[<kfc>]  ACTIVE[<kfc>]  YUKAWA[<kfc>]
       d       1         0.01              0              1              0              1              0
       u       2        0.005              0              1              0              1              0
       s       3          0.2              0              1              0              1              0
       c       4         1.42              0              1              1              1           1.42
       b       5          4.8              0              1              1              1            4.8
       t       6       173.21              2              0              1              1         173.21
      e-      11     0.000511              0              1              0              1              0
      ve      12            0              0              1              0              1              0
     mu-      13        0.105              0              1              0              1              0
     vmu      14            0              0              1              0              1              0
    tau-      15        1.777    2.26735e-12              0              0              1              0
    vtau      16            0              0              1              0              1              0
       G      21            0              0              1              0              1              0
       P      22            0              0              1              0              1              0
       Z      23      91.1876         2.4952              0              1              1        91.1876
      W+      24       80.385          2.085              0              1              1         80.385
      h0      25          125        0.00407              0              1              1            125

 List of Particle Containers 
    IDName     kfc     Constituents
         l      90     {e-,e+,mu-,mu+,tau-,tau+}
         v      91     {ve,veb,vmu,vmub,vtau,vtaub}
         j      93     {d,db,u,ub,s,sb,G}
         Q      94     {d,db,u,ub,s,sb}
         r      99     {d,db,u,ub,s,sb,G}

Hadron_Init::Init(): Initializing kf table for hadrons.
Initialized the Fragmentation_Handler.
Initialized the Soft_Collision_Handler.
CS_Shower::CS_Shower(): Set respect Q2 mode 0
CS_Shower::CS_Shower(): Set color setter mode 0
CS_Shower::CS_Shower(): Set respect Q2 mode 0
CS_Shower::CS_Shower(): Set color setter mode 0
Initialized the Shower_Handler.
+-----------------------------------------+
|   X   X   X XXXX  XXX  XXX  XXX         |
|  X X  XX XX X    X      X  X     X   X  |
| X   X X X X XXX  X XXX  X  X    XXX XXX |
| XXXXX X   X X    X   X  X  X     X   X  |
| X   X X   X XXXX  XXX  XXX  XXX         |
+-----------------------------------------+
| please cite: JHEP 0202:044,2002         |
+-----------------------------------------+
ME_Generator_Base::SetPSMasses(): Massive PS flavours for Comix: (e-,e+,mu-,mu+,tau-,tau+)
+----------------------------------+
|                                  |
|      [31mCCC[0m  [32mOOO[0m  [34mM[0m   [34mM[0m I [33mX[0m   [33mX[0m     |
|     [31mC[0m    [32mO[0m   [32mO[0m [34mMM[0m [34mMM[0m I  [33mX[0m [33mX[0m      |
|     [31mC[0m    [32mO[0m   [32mO[0m [34mM[0m [34mM[0m [34mM[0m I   [33mX[0m       |
|     [31mC[0m    [32mO[0m   [32mO[0m [34mM[0m   [34mM[0m I  [33mX[0m [33mX[0m      |
|      [31mCCC[0m  [32mOOO[0m  [34mM[0m   [34mM[0m I [33mX[0m   [33mX[0m     |
|                                  |
+==================================+
|  Color dressed  Matrix Elements  |
|     http://comix.freacafe.de     |
|   please cite  JHEP12(2008)039   |
+----------------------------------+
ME_Generator_Base::SetPSMasses(): Massive PS flavours for Amegic: (e-,e+,mu-,mu+,tau-,tau+)
Amegic::Initialize(): Set gauge 1.
ME_Generator_Base::SetPSMasses(): Massive PS flavours for Internal: (e-,e+,mu-,mu+,tau-,tau+)
Matrix_Element_Handler::BuildProcesses(): Looking for processes ........ done ( 16 MB, 0s / 0s ).
Matrix_Element_Handler::InitializeProcesses(): Performing tests ........ done ( 16 MB, 0s / 0s ).
Initialized the Matrix_Element_Handler for the hard processes.
Initialized the Beam_Remnant_Handler.
Hadron_Decay_Map::Read:   Initializing HadronDecays.dat. This may take some time.
Initialized the Hadron_Decay_Handler, Decay model = Hadrons
Initialized the Soft_Photon_Handler.
[31mVariations::InitialiseParametersVector([32m0 variations[31m)[0m[31m{[0m
  Named variations:
[31m}[0m
Process_Group::CalculateTotalXSec(): Calculate xs for '2_2__P__j__j__j' (Comix)
Starting the calculation at 15:29:29. Lean back and enjoy ... .
[34m1164.41 pb[0m +- ( [31m25.1885 pb = 2.1632 %[0m ) 5000 ( 6963 -> 71.8 % )
full optimization:  ( 1s elapsed / 1m 7s left ) [15:29:30]   
[34m1158.16 pb[0m +- ( [31m16.7376 pb = 1.44519 %[0m ) 10000 ( 13541 -> 76 % )
full optimization:  ( 2s elapsed / 1m 3s left ) [15:29:31]   
[34m1178.44 pb[0m +- ( [31m13.215 pb = 1.1214 %[0m ) 15000 ( 19867 -> 79 % )
full optimization:  ( 2s elapsed / 1m 2s left ) [15:29:32]   
[34m1181.59 pb[0m +- ( [31m11.0498 pb = 0.935159 %[0m ) 20000 ( 26125 -> 79.8 % )
full optimization:  ( 3s elapsed / 1m left ) [15:29:33]   
[34m1184.44 pb[0m +- ( [31m9.60163 pb = 0.810646 %[0m ) 25000 ( 32162 -> 82.8 % )
full optimization:  ( 4s elapsed / 58s left ) [15:29:34]   
[34m1181.94 pb[0m +- ( [31m8.51964 pb = 0.720818 %[0m ) 30000 ( 38154 -> 83.4 % )
full optimization:  ( 5s elapsed / 57s left ) [15:29:35]   
[34m1181.01 pb[0m +- ( [31m6.896 pb = 0.583904 %[0m ) 40000 ( 49097 -> 91.3 % )
full optimization:  ( 7s elapsed / 54s left ) [15:29:37]   
[34m1179.7 pb[0m +- ( [31m5.82735 pb = 0.493967 %[0m ) 50000 ( 59785 -> 93.5 % )
full optimization:  ( 9s elapsed / 51s left ) [15:29:38]   
[34m1179.27 pb[0m +- ( [31m5.07086 pb = 0.430001 %[0m ) 60000 ( 70345 -> 94.6 % )
full optimization:  ( 11s elapsed / 48s left ) [15:29:40]   
[34m1178.58 pb[0m +- ( [31m4.50719 pb = 0.382424 %[0m ) 70000 ( 80780 -> 95.8 % )
full optimization:  ( 12s elapsed / 47s left ) [15:29:42]   
[34m1178.95 pb[0m +- ( [31m4.06992 pb = 0.345216 %[0m ) 80000 ( 91143 -> 96.4 % )
full optimization:  ( 14s elapsed / 44s left ) [15:29:44]   
[34m1178.76 pb[0m +- ( [31m3.71908 pb = 0.315509 %[0m ) 90000 ( 101463 -> 96.8 % )
full optimization:  ( 16s elapsed / 42s left ) [15:29:45]   
[34m1178.06 pb[0m +- ( [31m3.4316 pb = 0.291293 %[0m ) 100000 ( 111771 -> 97 % )
full optimization:  ( 17s elapsed / 41s left ) [15:29:47]   
[34m1178.4 pb[0m +- ( [31m3.19201 pb = 0.270876 %[0m ) 110000 ( 122006 -> 97.7 % )
full optimization:  ( 19s elapsed / 39s left ) [15:29:49]   
[34m1179.37 pb[0m +- ( [31m2.98936 pb = 0.25347 %[0m ) 120000 ( 132206 -> 98 % )
full optimization:  ( 21s elapsed / 36s left ) [15:29:51]   
[34m1179.28 pb[0m +- ( [31m2.81427 pb = 0.238644 %[0m ) 130000 ( 142400 -> 98 % )
full optimization:  ( 23s elapsed / 34s left ) [15:29:52]   
[34m1179.59 pb[0m +- ( [31m2.66261 pb = 0.225724 %[0m ) 140000 ( 152613 -> 97.9 % )
full optimization:  ( 24s elapsed / 33s left ) [15:29:54]   
[34m1179.72 pb[0m +- ( [31m2.52922 pb = 0.214391 %[0m ) 150000 ( 162798 -> 98.1 % )
full optimization:  ( 26s elapsed / 31s left ) [15:29:56]   
[34m1179.44 pb[0m +- ( [31m2.41049 pb = 0.204377 %[0m ) 160000 ( 172991 -> 98.1 % )
full optimization:  ( 28s elapsed / 29s left ) [15:29:58]   
[34m1179.66 pb[0m +- ( [31m2.30512 pb = 0.195406 %[0m ) 170000 ( 183146 -> 98.4 % )
full optimization:  ( 30s elapsed / 27s left ) [15:29:59]   
[34m1179.36 pb[0m +- ( [31m2.21027 pb = 0.187412 %[0m ) 180000 ( 193311 -> 98.3 % )
full optimization:  ( 31s elapsed / 26s left ) [15:30:01]   
[34m1179.02 pb[0m +- ( [31m2.12533 pb = 0.180263 %[0m ) 190000 ( 203474 -> 98.3 % )
full optimization:  ( 33s elapsed / 24s left ) [15:30:03]   
[34m1178.56 pb[0m +- ( [31m2.04792 pb = 0.173765 %[0m ) 200000 ( 213639 -> 98.3 % )
full optimization:  ( 35s elapsed / 22s left ) [15:30:05]   
[34m1178.38 pb[0m +- ( [31m1.97662 pb = 0.16774 %[0m ) 210000 ( 223799 -> 98.4 % )
full optimization:  ( 36s elapsed / 21s left ) [15:30:06]   
[34m1178.02 pb[0m +- ( [31m1.91149 pb = 0.162263 %[0m ) 220000 ( 233937 -> 98.6 % )
full optimization:  ( 38s elapsed / 19s left ) [15:30:08]   
[34m1177.87 pb[0m +- ( [31m1.85174 pb = 0.157211 %[0m ) 230000 ( 244105 -> 98.3 % )
integration time:  ( 40s elapsed / 17s left ) [15:30:10]   
[34m1177.96 pb[0m +- ( [31m1.7965 pb = 0.15251 %[0m ) 240000 ( 254235 -> 98.5 % )
integration time:  ( 42s elapsed / 15s left ) [15:30:12]   
[34m1177.59 pb[0m +- ( [31m1.69775 pb = 0.144172 %[0m ) 260000 ( 274572 -> 98.4 % )
integration time:  ( 45s elapsed / 12s left ) [15:30:15]   
[34m1177.71 pb[0m +- ( [31m1.612 pb = 0.136876 %[0m ) 280000 ( 294875 -> 98.4 % )
integration time:  ( 49s elapsed / 8s left ) [15:30:19]   
[34m1177.09 pb[0m +- ( [31m1.53651 pb = 0.130535 %[0m ) 300000 ( 315177 -> 98.4 % )
integration time:  ( 53s elapsed / 4s left ) [15:30:23]   
[1m2_2__P__j__j__j[0m : [34m[1m1177.09 pb[0m +- ( [31m1.53651 pb = 0.130535 %[0m ) [1m exp. eff: [31m13.7929 %[0m
  reduce max for 2_2__P__j__j__j to 0.749324 ( eps = 0.001 ) 
Process_Group::CalculateTotalXSec(): Calculate xs for '2_2__P__j__c__cb' (Comix)
Starting the calculation at 15:30:23. Lean back and enjoy ... .
[34m467.942 pb[0m +- ( [31m11.7922 pb = 2.52001 %[0m ) 5000 ( 6463 -> 77.3 % )
full optimization:  ( 0s elapsed / 14s left ) [15:30:23]   
[34m461.308 pb[0m +- ( [31m7.94473 pb = 1.72222 %[0m ) 10000 ( 12770 -> 79.2 % )
full optimization:  ( 0s elapsed / 14s left ) [15:30:23]   
[34m457.358 pb[0m +- ( [31m6.23919 pb = 1.36418 %[0m ) 15000 ( 18886 -> 81.7 % )
full optimization:  ( 0s elapsed / 14s left ) [15:30:24]   
[34m458.637 pb[0m +- ( [31m5.25915 pb = 1.14669 %[0m ) 20000 ( 24919 -> 82.8 % )
full optimization:  ( 0s elapsed / 14s left ) [15:30:24]   
[34m458.695 pb[0m +- ( [31m4.59309 pb = 1.00134 %[0m ) 25000 ( 30896 -> 83.6 % )
full optimization:  ( 1s elapsed / 13s left ) [15:30:24]   
[34m458.017 pb[0m +- ( [31m4.10536 pb = 0.896333 %[0m ) 30000 ( 36808 -> 84.5 % )
full optimization:  ( 1s elapsed / 13s left ) [15:30:24]   
[34m459.343 pb[0m +- ( [31m3.36841 pb = 0.73331 %[0m ) 40000 ( 47794 -> 91 % )
full optimization:  ( 1s elapsed / 13s left ) [15:30:25]   
[34m460.139 pb[0m +- ( [31m2.88341 pb = 0.626639 %[0m ) 50000 ( 58580 -> 92.7 % )
full optimization:  ( 2s elapsed / 12s left ) [15:30:25]   
[34m459.912 pb[0m +- ( [31m2.53694 pb = 0.551613 %[0m ) 60000 ( 69322 -> 93 % )
full optimization:  ( 2s elapsed / 12s left ) [15:30:26]   
[34m460.215 pb[0m +- ( [31m2.27822 pb = 0.495034 %[0m ) 70000 ( 80046 -> 93.2 % )
full optimization:  ( 3s elapsed / 11s left ) [15:30:26]   
[34m461.129 pb[0m +- ( [31m2.0797 pb = 0.451002 %[0m ) 80000 ( 90664 -> 94.1 % )
full optimization:  ( 3s elapsed / 11s left ) [15:30:27]   
[34m461.089 pb[0m +- ( [31m1.91793 pb = 0.415956 %[0m ) 90000 ( 101340 -> 93.6 % )
full optimization:  ( 3s elapsed / 11s left ) [15:30:27]   
[34m461.208 pb[0m +- ( [31m1.78654 pb = 0.38736 %[0m ) 100000 ( 111960 -> 94.1 % )
full optimization:  ( 4s elapsed / 9s left ) [15:30:28]   
[34m461.889 pb[0m +- ( [31m1.67722 pb = 0.363122 %[0m ) 110000 ( 122535 -> 94.5 % )
full optimization:  ( 4s elapsed / 9s left ) [15:30:28]   
[34m462.184 pb[0m +- ( [31m1.58385 pb = 0.342689 %[0m ) 120000 ( 133078 -> 94.8 % )
full optimization:  ( 5s elapsed / 8s left ) [15:30:29]   
[34m462.215 pb[0m +- ( [31m1.50286 pb = 0.325143 %[0m ) 130000 ( 143625 -> 94.8 % )
full optimization:  ( 5s elapsed / 8s left ) [15:30:29]   
[34m462.259 pb[0m +- ( [31m1.43211 pb = 0.309807 %[0m ) 140000 ( 154200 -> 94.5 % )
full optimization:  ( 6s elapsed / 8s left ) [15:30:30]   
[34m462.379 pb[0m +- ( [31m1.37012 pb = 0.296319 %[0m ) 150000 ( 164739 -> 94.8 % )
full optimization:  ( 6s elapsed / 7s left ) [15:30:30]   
[34m462.134 pb[0m +- ( [31m1.31439 pb = 0.284418 %[0m ) 160000 ( 175252 -> 95.1 % )
full optimization:  ( 6s elapsed / 7s left ) [15:30:30]   
[34m461.797 pb[0m +- ( [31m1.26433 pb = 0.273784 %[0m ) 170000 ( 185762 -> 95.1 % )
full optimization:  ( 7s elapsed / 6s left ) [15:30:31]   
[34m461.546 pb[0m +- ( [31m1.21923 pb = 0.264163 %[0m ) 180000 ( 196327 -> 94.6 % )
full optimization:  ( 7s elapsed / 6s left ) [15:30:31]   
[34m461.149 pb[0m +- ( [31m1.1784 pb = 0.255536 %[0m ) 190000 ( 206893 -> 94.6 % )
full optimization:  ( 8s elapsed / 5s left ) [15:30:32]   
[34m461.238 pb[0m +- ( [31m1.14142 pb = 0.247469 %[0m ) 200000 ( 217497 -> 94.3 % )
full optimization:  ( 8s elapsed / 5s left ) [15:30:32]   
[34m461.443 pb[0m +- ( [31m1.10758 pb = 0.240026 %[0m ) 210000 ( 228025 -> 94.9 % )
full optimization:  ( 9s elapsed / 4s left ) [15:30:33]   
[34m461.627 pb[0m +- ( [31m1.07666 pb = 0.233231 %[0m ) 220000 ( 238556 -> 94.9 % )
full optimization:  ( 9s elapsed / 4s left ) [15:30:33]   
[34m461.539 pb[0m +- ( [31m1.04789 pb = 0.227044 %[0m ) 230000 ( 249057 -> 95.2 % )
integration time:  ( 9s elapsed / 4s left ) [15:30:34]   
[34m461.505 pb[0m +- ( [31m1.02099 pb = 0.221231 %[0m ) 240000 ( 259619 -> 94.9 % )
integration time:  ( 10s elapsed / 3s left ) [15:30:34]   
[34m461.343 pb[0m +- ( [31m0.972705 pb = 0.210842 %[0m ) 260000 ( 280709 -> 94.8 % )
integration time:  ( 11s elapsed / 2s left ) [15:30:35]   
[34m461.467 pb[0m +- ( [31m0.930762 pb = 0.201696 %[0m ) 280000 ( 301814 -> 94.8 % )
integration time:  ( 12s elapsed / 1s left ) [15:30:36]   
[34m461.481 pb[0m +- ( [31m0.893573 pb = 0.193632 %[0m ) 300000 ( 322928 -> 94.8 % )
integration time:  ( 12s elapsed / 1s left ) [15:30:37]   
[1m2_2__P__j__c__cb[0m : [34m[1m461.481 pb[0m +- ( [31m0.893573 pb = 0.193632 %[0m ) [1m exp. eff: [31m17.181 %[0m
  reduce max for 2_2__P__j__c__cb to 0.632801 ( eps = 0.001 ) 
Process_Group::CalculateTotalXSec(): Calculate xs for '2_2__P__j__b__bb' (Comix)
Starting the calculation at 15:30:37. Lean back and enjoy ... .
[34m92.6687 pb[0m +- ( [31m2.60736 pb = 2.81364 %[0m ) 5000 ( 7874 -> 63.5 % )
full optimization:  ( 0s elapsed / 16s left ) [15:30:37]   
[34m92.4726 pb[0m +- ( [31m1.75419 pb = 1.89698 %[0m ) 10000 ( 15709 -> 63.8 % )
full optimization:  ( 0s elapsed / 16s left ) [15:30:37]   
[34m92.6109 pb[0m +- ( [31m1.37901 pb = 1.48903 %[0m ) 15000 ( 23374 -> 65.2 % )
full optimization:  ( 0s elapsed / 15s left ) [15:30:38]   
[34m91.9418 pb[0m +- ( [31m1.14983 pb = 1.25061 %[0m ) 20000 ( 31201 -> 63.8 % )
full optimization:  ( 0s elapsed / 15s left ) [15:30:38]   
[34m91.346 pb[0m +- ( [31m0.998065 pb = 1.09262 %[0m ) 25000 ( 38987 -> 64.2 % )
full optimization:  ( 1s elapsed / 14s left ) [15:30:38]   
[34m91.6451 pb[0m +- ( [31m0.89355 pb = 0.97501 %[0m ) 30000 ( 46556 -> 66 % )
full optimization:  ( 1s elapsed / 14s left ) [15:30:39]   
[34m90.6608 pb[0m +- ( [31m0.726529 pb = 0.80137 %[0m ) 40000 ( 61254 -> 68 % )
full optimization:  ( 1s elapsed / 14s left ) [15:30:39]   
[34m90.3862 pb[0m +- ( [31m0.621862 pb = 0.688006 %[0m ) 50000 ( 74943 -> 73 % )
full optimization:  ( 2s elapsed / 12s left ) [15:30:39]   
[34m90.5229 pb[0m +- ( [31m0.547923 pb = 0.605286 %[0m ) 60000 ( 88645 -> 72.9 % )
full optimization:  ( 2s elapsed / 12s left ) [15:30:40]   
[34m90.6796 pb[0m +- ( [31m0.493261 pb = 0.54396 %[0m ) 70000 ( 101980 -> 74.9 % )
full optimization:  ( 3s elapsed / 11s left ) [15:30:40]   
[34m90.625 pb[0m +- ( [31m0.450162 pb = 0.496731 %[0m ) 80000 ( 115368 -> 74.6 % )
full optimization:  ( 3s elapsed / 11s left ) [15:30:41]   
[34m90.7223 pb[0m +- ( [31m0.415998 pb = 0.45854 %[0m ) 90000 ( 128559 -> 75.8 % )
full optimization:  ( 4s elapsed / 10s left ) [15:30:41]   
[34m90.5749 pb[0m +- ( [31m0.387231 pb = 0.427526 %[0m ) 100000 ( 141873 -> 75.1 % )
full optimization:  ( 4s elapsed / 10s left ) [15:30:42]   
[34m90.5747 pb[0m +- ( [31m0.363635 pb = 0.401476 %[0m ) 110000 ( 154839 -> 77.1 % )
full optimization:  ( 4s elapsed / 10s left ) [15:30:42]   
[34m90.5825 pb[0m +- ( [31m0.343344 pb = 0.37904 %[0m ) 120000 ( 167913 -> 76.4 % )
full optimization:  ( 5s elapsed / 9s left ) [15:30:43]   
[34m90.5245 pb[0m +- ( [31m0.32578 pb = 0.35988 %[0m ) 130000 ( 180876 -> 77.1 % )
full optimization:  ( 5s elapsed / 9s left ) [15:30:43]   
[34m90.5352 pb[0m +- ( [31m0.310505 pb = 0.342966 %[0m ) 140000 ( 193808 -> 77.3 % )
full optimization:  ( 6s elapsed / 8s left ) [15:30:44]   
[34m90.5183 pb[0m +- ( [31m0.296894 pb = 0.327993 %[0m ) 150000 ( 206919 -> 76.2 % )
full optimization:  ( 6s elapsed / 8s left ) [15:30:44]   
[34m90.5454 pb[0m +- ( [31m0.284886 pb = 0.314634 %[0m ) 160000 ( 219832 -> 77.4 % )
full optimization:  ( 7s elapsed / 7s left ) [15:30:45]   
[34m90.5004 pb[0m +- ( [31m0.274036 pb = 0.302801 %[0m ) 170000 ( 232762 -> 77.3 % )
full optimization:  ( 7s elapsed / 7s left ) [15:30:45]   
[34m90.532 pb[0m +- ( [31m0.264458 pb = 0.292115 %[0m ) 180000 ( 245651 -> 77.5 % )
full optimization:  ( 7s elapsed / 7s left ) [15:30:46]   
[34m90.4928 pb[0m +- ( [31m0.255552 pb = 0.282401 %[0m ) 190000 ( 258603 -> 77.2 % )
full optimization:  ( 8s elapsed / 6s left ) [15:30:46]   
[34m90.5343 pb[0m +- ( [31m0.247513 pb = 0.273391 %[0m ) 200000 ( 271484 -> 77.6 % )
full optimization:  ( 8s elapsed / 6s left ) [15:30:47]   
[34m90.4962 pb[0m +- ( [31m0.240029 pb = 0.265237 %[0m ) 210000 ( 284508 -> 76.7 % )
full optimization:  ( 9s elapsed / 5s left ) [15:30:47]   
[34m90.5193 pb[0m +- ( [31m0.233243 pb = 0.257672 %[0m ) 220000 ( 297482 -> 77 % )
full optimization:  ( 9s elapsed / 5s left ) [15:30:47]   
[34m90.4669 pb[0m +- ( [31m0.226891 pb = 0.250801 %[0m ) 230000 ( 310518 -> 76.7 % )
integration time:  ( 10s elapsed / 4s left ) [15:30:48]   
[34m90.485 pb[0m +- ( [31m0.221097 pb = 0.244346 %[0m ) 240000 ( 323417 -> 77.1 % )
integration time:  ( 10s elapsed / 4s left ) [15:30:48]   
[34m90.4744 pb[0m +- ( [31m0.210577 pb = 0.232747 %[0m ) 260000 ( 349223 -> 77.3 % )
integration time:  ( 11s elapsed / 3s left ) [15:30:49]   
[34m90.5726 pb[0m +- ( [31m0.201514 pb = 0.222489 %[0m ) 280000 ( 374941 -> 77.4 % )
integration time:  ( 12s elapsed / 2s left ) [15:30:51]   
[34m90.6208 pb[0m +- ( [31m0.193429 pb = 0.213449 %[0m ) 300000 ( 400620 -> 77.5 % )
integration time:  ( 13s elapsed / 1s left ) [15:30:52]   
[1m2_2__P__j__b__bb[0m : [34m[1m90.6208 pb[0m +- ( [31m0.193429 pb = 0.213449 %[0m ) [1m exp. eff: [31m8.11235 %[0m
  reduce max for 2_2__P__j__b__bb to 0.391104 ( eps = 0.001 ) 
----------------------------------------------------------
-- SHERPA generates events with the following structure --
----------------------------------------------------------
Perturbative       : Signal_Processes
Perturbative       : Hard_Decays
Perturbative       : Jet_Evolution:CSS
Perturbative       : Lepton_FS_QED_Corrections:Photons
Perturbative       : Multiple_Interactions:None
Perturbative       : Minimum_Bias:Off
Hadronization      : Beam_Remnants
Hadronization      : Hadronization:Ahadic
Hadronization      : Hadron_Decays
Unknown            : 
---------------------------------------------------------
Blob_List::FourMomentumConservation(): (0x1ffae58) Four Momentum is not conserved.
   p_{in} = (923.823,0,0,-916.177) vs. p_{out} = (925.248,0,0,-914.751),
   diff = (1.42535,0,0,1.42535).

[1mException_Handler::SignalHandler: [0m[34mSignal [0m[1m([31m11[0m[1m)[0m[34m caught. [0m
[1mException_Handler::GenerateStackTrace(..): [0m[34mGenerating stack trace [0m[1m
{[0m
  0x7fd4439b751e  in '[31mATOOLS::Momentum_Shifter::CalculateSPerp()[0m' ([36mMomentum_Shifter.C:85[0m)
  0x7fd4439b907d  in '[31mATOOLS::Momentum_Shifter::Scale()[0m' ([36mMomentum_Shifter.C:258[0m)
  0x7fd444871b59  in '[31mPDF::Remnant_Base::AdjustKinematics()[0m' ([36mRemnant_Base.C:111[0m)
  0x7fd445213567  in '[31mSHERPA::Parametrised_Beam_Remnants::FillBeamBlobs(ATOOLS::Blob_List*, ATOOLS::Particle_List*)[0m' ([36mParametrised_Beam_Remnants.C:96[0m)
  0x7fd4452120fe  in '[31mSHERPA::Beam_Remnant_Handler::FillBeamAndBunchBlobs(ATOOLS::Blob_List*)[0m' ([36mBeam_Remnant_Handler.C:72[0m)
  0x7fd443a0321c  in '[31mSHERPA::Event_Handler::IterateEventPhases(SHERPA::eventtype::code&, double&)[0m' ([36mEvent_Handler.C:205[0m)
  0x7fd443a07802  in '[31mSHERPA::Event_Handler::GenerateStandardPerturbativeEvent(SHERPA::eventtype::code&)[0m' ([36mEvent_Handler.C:307[0m)
  0x7fd443a08fda  in '[31mSHERPA::Event_Handler::GenerateEvent(SHERPA::eventtype::code)[0m' ([36mEvent_Handler.C:127[0m)
  0x7fd445300779  in '[31mSHERPA::Sherpa::GenerateOneEvent(bool)[0m' ([36mSherpa.C:232[0m)
  0x40225d        in '[31mmain[0m' 
[1m}[0m[0m   Cannot continue.[0m
[1mException_Handler::GenerateStackTrace(..): [0m[34mGenerating stack trace [0m[1m
{[0m
  0x7fd4439b751e  in '[31mATOOLS::Momentum_Shifter::CalculateSPerp()[0m' ([36mMomentum_Shifter.C:85[0m)
  0x7fd4439b907d  in '[31mATOOLS::Momentum_Shifter::Scale()[0m' ([36mMomentum_Shifter.C:258[0m)
  0x7fd444871b59  in '[31mPDF::Remnant_Base::AdjustKinematics()[0m' ([36mRemnant_Base.C:111[0m)
  0x7fd445213567  in '[31mSHERPA::Parametrised_Beam_Remnants::FillBeamBlobs(ATOOLS::Blob_List*, ATOOLS::Particle_List*)[0m' ([36mParametrised_Beam_Remnants.C:96[0m)
  0x7fd4452120fe  in '[31mSHERPA::Beam_Remnant_Handler::FillBeamAndBunchBlobs(ATOOLS::Blob_List*)[0m' ([36mBeam_Remnant_Handler.C:72[0m)
  0x7fd443a0321c  in '[31mSHERPA::Event_Handler::IterateEventPhases(SHERPA::eventtype::code&, double&)[0m' ([36mEvent_Handler.C:205[0m)
  0x7fd443a07802  in '[31mSHERPA::Event_Handler::GenerateStandardPerturbativeEvent(SHERPA::eventtype::code&)[0m' ([36mEvent_Handler.C:307[0m)
  0x7fd443a08fda  in '[31mSHERPA::Event_Handler::GenerateEvent(SHERPA::eventtype::code)[0m' ([36mEvent_Handler.C:127[0m)
  0x7fd445300779  in '[31mSHERPA::Sherpa::GenerateOneEvent(bool)[0m' ([36mSherpa.C:232[0m)
  0x40225d        in '[31mmain[0m' 
[1m}[0m
Exception_Handler::Terminate(): Pre-crash status saved to '/mt/home/pmeinzinger/sherpa-runs/validate-sherpa/v2.2.11/Status__Thu_Feb_10_15-30-52_2022'.
  Event 0 ( 0 s total ) = -0 evts/day                    
In Event_Handler::Finish : Summarizing the run may take some time.
[1m+-------------------------------------------------+
|                                                 |
|[0m  [1mTotal XS[0m is [34m[1m0 pb[0m +- ( [31m0 pb = -2.14748e+07 %[0m )  [1m|
|                                                 |
+-------------------------------------------------+[0m
WARNING: You are using an unsupported development branch.
------------------------------------------------------------------------
[1mPlease cite the publications listed in '[31mSherpa_References.tex[0m[1m'.[0m
  Extract the bibtex list by running 'get_bibtex Sherpa_References.tex'
  or email the file to 'slaclib2@slac.stanford.edu', subject 'generate'.
------------------------------------------------------------------------
[1mException_Handler::Exit: [0m[34mExiting Sherpa with code [0m[1m([31m2[0m[1m)[0m[?25h
