Welcome to Sherpa, Peter Meinzinger on DA-FVFF6767Q05F. Initialization of framework underway.
The local time is Wed Mar  2 18:45:34 2022.
Run_Parameter::Init(): Cannot set memory limit.
Run_Parameter::Init(): Setting memory limit to 8.58993e+09 GB.
Random::SetSeed(): Seed set to 12345
-----------------------------------------------------------------------------
-----------    Event generation run with SHERPA started .......   -----------
-----------------------------------------------------------------------------
................................................ |       +                   
................................................ ||  |       +  +            
...................................        ....  | |         /   +           
................. ................   _,_ |  ....  ||         +|  +  +        
...............................  __.'  ,\|  ...  ||    /    +|          +    
.............................. (  \    \   ...  | |  |   + + \         +   
.............................  (    \   -/  .... ||       +    |          +  
........ ...................  <S   /()))))~~~~~~~~##     +     /\    +       
............................ (!H   (~~)))))~~~~~~#/     +  +    |  +         
................ ........... (!E   (~~~)))))     /|/    +         +          
............................ (!R   (~~~)))))   |||   + +            +        
..... ...................... (!P    (~~~~)))   /|  + +          +            
............................ (!A>    (~~~~~~~~~##        + +        +        
............................. ~~(!    '~~~~~~~ \       +     + +      +      
...............................  `~~~QQQQQDb //   |         + + +        +   
........................ ..........   IDDDDP||     \  + + + + +             +
....................................  IDDDI||       \                      + 
.................................... IHD HD||         \ + +  + + + + +      +
...................................  IHD ##|            :-) + +\          +  
......... ............... ......... IHI ## /      /   +  + + + +\       +    
................................... IHI/ /       /      + + + +        +     
................................... ## | | /    / + +      + + /      +      
....................... /TT\ .....  ##/ ///  / + + + + + + +/       +        
......................./TTT/T\ ... /TT\/\\\ / + + + + + + +/   \         +   
....................../TTT/TTTT\...|TT/T\\\/   +    ++  + /              
-----------------------------------------------------------------------------

     SHERPA version 3.0.0alpha1 (Dhaulagiri)
                                                                             
     Authors:        Enrico Bothmann, Stefan Hoeche, Frank Krauss,           
                     Silvan Kuttimalai, Marek Schoenherr, Holger Schulz,     
                     Steffen Schumann, Frank Siegert, Korinna Zapp           
     Former Authors: Timo Fischer, Tanju Gleisberg, Hendrik Hoeth,           
                     Ralf Kuhn, Thomas Laubrich, Andreas Schaelicke,         
                     Jan Winter                                              
                                                                             
     This program uses a lot of genuine and original research work           
     by other people. Users are encouraged to refer to                       
     the various original publications.                                      
                                                                             
     Users are kindly asked to refer to the documentation                    
     published under JHEP 02(2009)007                                        
                                                                             
     Please visit also our homepage                                          
                                                                             
       http://sherpa.hepforge.org                                            
                                                                             
     for news, bugreports, updates and new releases.                         
                                                                             
-----------------------------------------------------------------------------
WARNING: You are using an unsupported development branch.
Git branch 327-bugfixing-hera, revision 1d3501c0eecaef164fbbb3e96299f13244d3575c.
===> PHASIC++/Channels has local modifications f0b46af64fc087b4c9a7ebd970bec88c <===
Beam_Spectra_Handler: type = Collider Setup
    for e- (on = 0, p = (99,0,0,99))
    and e+ (on = 0, p = (99,0,0,-99)).
PDF set 'PDFe' loaded for beam 2 (e+).
ISR_Handler: type = lepton_lepton
    for e- (internal structure = 0)
    and e+ (internal structure = 1)
ISR_Handler: type = lepton_lepton
    for e- (internal structure = 0)
    and e+ (internal structure = 1)
Initialized the ISR.
Standard_Model::FixEWParameters() {
  Input scheme: alphamZ
                alpha(m_Z) scheme, input: 1/\alphaQED(m_Z), m_W, m_Z, m_h, widths
  Ren. scheme:  alphamZ
                alpha(m_Z)
  Parameters:   sin^2(\theta_W) = 0.222928 - 0.00110708 i
                vev             = 243.034 - 3.75492 i
}
Running_AlphaQED::PrintSummary() {
  Setting \alpha according to EW scheme
  1/\alpha(0)   = 128.802
  1/\alpha(def) = 128.802
}
One_Running_AlphaS::PrintSummary() {
  Setting \alpha_s according to PDF
  perturbative order 1
  \alpha_s(M_Z) = 0.118
}
One_Running_AlphaS::PrintSummary() {
  Setting \alpha_s according to PDF
  perturbative order 1
  \alpha_s(M_Z) = 0.118
}
List of Particle Data 
     IDName     kfc            Mass           Width   Stable  Massive   Active          Yukawa
          d       1            0.01               0        1        0        1               0
          u       2           0.005               0        1        0        1               0
          s       3             0.2               0        1        0        1               0
          c       4            1.42               0        1        1        1            1.42
          b       5            4.92               0        1        1        1            4.92
          t       6          173.21               2        0        1        1          173.21
         e-      11        0.000511               0        1        0        1               0
         ve      12               0               0        1        0        1               0
        mu-      13           0.105               0        1        0        1               0
        vmu      14               0               0        1        0        1               0
       tau-      15           1.777     2.26735e-12        0        0        1               0
       vtau      16               0               0        1        0        1               0
          G      21               0               0        1        0        1               0
          P      22               0               0        1        0        1               0
          Z      23         91.1876          2.4952        0        1        1         91.1876
         W+      24          80.385           2.085        0        1        1          80.385
         h0      25             125         0.00407        0        1        1             125
  Instanton     999               0               0        0        0        1               0
List of Particle Containers 
     IDName     kfc     Constituents
          l      90     {e-,e+,mu-,mu+,tau-,tau+}
          v      91     {ve,veb,vmu,vmub,vtau,vtaub}
          f      92     {d,db,u,ub,s,sb,e-,e+,mu-,mu+,tau-,tau+,ve,veb,vmu,vmub,vtau,vtaub}
          j      93     {d,db,u,ub,s,sb,G}
          Q      94     {d,db,u,ub,s,sb}
        ewj      98     {d,db,u,ub,s,sb,G,P}
Initialized the Shower_Handler.
+-----------------------------------------+
|   X   X   X XXXX  XXX  XXX  XXX         |
|  X X  XX XX X    X      X  X     X   X  |
| X   X X X X XXX  X XXX  X  X    XXX XXX |
| XXXXX X   X X    X   X  X  X     X   X  |
| X   X X   X XXXX  XXX  XXX  XXX         |
+-----------------------------------------+
| please cite: JHEP 0202:044,2002         |
+-----------------------------------------+
Matrix_Element_Handler::Matrix_Element_Handler(): Set pilot run mode to 0.
ME_Generator_Base::SetPSMasses(): Massive PS flavours for Comix: (e-,e+,mu-,mu+,tau-,tau+)
+----------------------------------+
|                                  |
|      [31mCCC[0m  [32mOOO[0m  [34mM[0m   [34mM[0m I [33mX[0m   [33mX[0m     |
|     [31mC[0m    [32mO[0m   [32mO[0m [34mMM[0m [34mMM[0m I  [33mX[0m [33mX[0m      |
|     [31mC[0m    [32mO[0m   [32mO[0m [34mM[0m [34mM[0m [34mM[0m I   [33mX[0m       |
|     [31mC[0m    [32mO[0m   [32mO[0m [34mM[0m   [34mM[0m I  [33mX[0m [33mX[0m      |
|      [31mCCC[0m  [32mOOO[0m  [34mM[0m   [34mM[0m I [33mX[0m   [33mX[0m     |
|                                  |
+==================================+
|  Color dressed  Matrix Elements  |
|     http://comix.freacafe.de     |
|   please cite  JHEP12(2008)039   |
+----------------------------------+
ME_Generator_Base::SetPSMasses(): Massive PS flavours for Amegic: (e-,e+,mu-,mu+,tau-,tau+)
ME_Generator_Base::SetPSMasses(): Massive PS flavours for Internal: (e-,e+,mu-,mu+,tau-,tau+)
Matrix_Element_Handler::BuildProcesses(): Looking for processes [3 generators, 30 processes]Matrix_Element_Handler::BuildSingleProcessList(): Error in initialising ISR (e- -> e-) x (e+ -> j). Ignoring process.
Matrix_Element_Handler::BuildSingleProcessList(): Error in initialising ISR (e- -> e+) x (e+ -> j). Ignoring process.
Matrix_Element_Handler::BuildSingleProcessList(): Error in initialising ISR (e- -> j) x (e+ -> j). Ignoring process.
Matrix_Element_Handler::BuildSingleProcessList(): Error in initialising ISR (e- -> P) x (e+ -> j). Ignoring process.
..Matrix_Element_Handler::BuildSingleProcessList(): Error in initialising ISR (e- -> P) x (e+ -> P). Ignoring process.
Matrix_Element_Handler::BuildSingleProcessList(): Error in initialising ISR (e- -> e-) x (e+ -> c). Ignoring process.
Matrix_Element_Handler::BuildSingleProcessList(): Error in initialising ISR (e- -> e+) x (e+ -> c). Ignoring process.
Matrix_Element_Handler::BuildSingleProcessList(): Error in initialising ISR (e- -> e-) x (e+ -> cb). Ignoring process.
Matrix_Element_Handler::BuildSingleProcessList(): Error in initialising ISR (e- -> e+) x (e+ -> cb). Ignoring process.
Matrix_Element_Handler::BuildSingleProcessList(): Error in initialising ISR (e- -> j) x (e+ -> j). Ignoring process.
Matrix_Element_Handler::BuildSingleProcessList(): Error in initialising ISR (e- -> cb) x (e+ -> cb). Ignoring process.
Matrix_Element_Handler::BuildSingleProcessList(): Error in initialising ISR (e- -> c) x (e+ -> c). Ignoring process.
Matrix_Element_Handler::BuildSingleProcessList(): Error in initialising ISR (e- -> c) x (e+ -> cb). Ignoring process.
Matrix_Element_Handler::BuildSingleProcessList(): Error in initialising ISR (e- -> P) x (e+ -> j). Ignoring process.
.Matrix_Element_Handler::BuildSingleProcessList(): Error in initialising ISR (e- -> P) x (e+ -> P). Ignoring process.
Matrix_Element_Handler::BuildSingleProcessList(): Error in initialising ISR (e- -> c) x (e+ -> cb). Ignoring process.
Matrix_Element_Handler::BuildSingleProcessList(): Error in initialising ISR (e- -> e-) x (e+ -> b). Ignoring process.
Matrix_Element_Handler::BuildSingleProcessList(): Error in initialising ISR (e- -> e+) x (e+ -> b). Ignoring process.
Matrix_Element_Handler::BuildSingleProcessList(): Error in initialising ISR (e- -> e-) x (e+ -> bb). Ignoring process.
Matrix_Element_Handler::BuildSingleProcessList(): Error in initialising ISR (e- -> e+) x (e+ -> bb). Ignoring process.
Matrix_Element_Handler::BuildSingleProcessList(): Error in initialising ISR (e- -> j) x (e+ -> j). Ignoring process.
Matrix_Element_Handler::BuildSingleProcessList(): Error in initialising ISR (e- -> bb) x (e+ -> bb). Ignoring process.
Matrix_Element_Handler::BuildSingleProcessList(): Error in initialising ISR (e- -> b) x (e+ -> b). Ignoring process.
Matrix_Element_Handler::BuildSingleProcessList(): Error in initialising ISR (e- -> b) x (e+ -> bb). Ignoring process.
Matrix_Element_Handler::BuildSingleProcessList(): Error in initialising ISR (e- -> P) x (e+ -> j). Ignoring process.
.Matrix_Element_Handler::BuildSingleProcessList(): Error in initialising ISR (e- -> P) x (e+ -> P). Ignoring process.
Matrix_Element_Handler::BuildSingleProcessList(): Error in initialising ISR (e- -> b) x (e+ -> bb). Ignoring process.
 done ( 21 MB, 0s / 0s ).
Matrix_Element_Handler::InitializeProcesses(): Performing tests.... done ( 21 MB, 0s / 0s ).
Matrix_Element_Handler::InitializeProcesses(): Initializing scales done ( 21 MB, 0s / 0s ).
Initialized the Matrix_Element_Handler for the hard processes.
Initialized the Beam_Remnant_Handler.
Hadron_Init::Init(): Initializing kf table for hadrons.
Initialized the Fragmentation_Handler.
Initialized the Soft_Collision_Handler.
Hadron_Decay_Map::Read:   Initializing HadronDecays.dat. This may take some time.
[34mHadron_Decay_Channel::ProcessResult[0m:([32m"Found nan in K --> K(L) . Ignoring and continuing."[0m)
[34mHadron_Decay_Channel::ProcessResult[0m:([32m"Found nan in K --> K(S) . Ignoring and continuing."[0m)
Initialized the Hadron_Decay_Handler, Decay model = Hadrons
Initialized the Soft_Photon_Handler.
WARNING in Variations::CheckConsistencyWithBeamSpectra: 
   The internal reweighting is only tested
   for hadronic beams of (anti-)protons.
   Will continue and hope for the best.
Initialized the Reweighting.
Process_Group::CalculateTotalXSec(): Calculate xs for '2_2__e-__e+__j__j' (Comix)
Integration parameters: n_{min} = 1000, N_{opt} 7, N_{max} = 3, exponent = 1
Starting the calculation at 18:45:34. Lean back and enjoy ... .
[34m30.4549 pb[0m +- ( [31m0.691668 pb = 2.27112 %[0m ) 1000 ( 1024 -> 97.6 % )
full optimization:  ( 0s elapsed / 5s left ) [18:45:34]
[34m31.3037 pb[0m +- ( [31m0.741968 pb = 2.37022 %[0m ) 2000 ( 2035 -> 98.9 % )
full optimization:  ( 0s elapsed / 5s left ) [18:45:34]
[34m30.8247 pb[0m +- ( [31m0.348831 pb = 1.13166 %[0m ) 4000 ( 4079 -> 97.8 % )
full optimization:  ( 0s elapsed / 5s left ) [18:45:34]
[34m30.7168 pb[0m +- ( [31m0.187399 pb = 0.610086 %[0m ) 8000 ( 8163 -> 97.9 % )
full optimization:  ( 0s elapsed / 5s left ) [18:45:34]
[34m30.5471 pb[0m +- ( [31m0.112236 pb = 0.367419 %[0m ) 16000 ( 16349 -> 97.7 % )
full optimization:  ( 0s elapsed / 5s left ) [18:45:34]
[34m30.4549 pb[0m +- ( [31m0.0707301 pb = 0.232245 %[0m ) 32000 ( 32723 -> 97.7 % )
full optimization:  ( 0s elapsed / 5s left ) [18:45:34]
[34m30.3584 pb[0m +- ( [31m0.0468798 pb = 0.154421 %[0m ) 64000 ( 65591 -> 97.3 % )
full optimization:  ( 0s elapsed / 5s left ) [18:45:35]
[34m30.3163 pb[0m +- ( [31m0.0318681 pb = 0.105119 %[0m ) 128000 ( 131254 -> 97.4 % )
integration time:   ( 1s elapsed / 3s left ) [18:45:35]
[34m30.356 pb[0m +- ( [31m0.0220477 pb = 0.0726305 %[0m ) 256000 ( 262543 -> 97.4 % )
integration time:   ( 2s elapsed / 3s left ) [18:45:37]
[34m30.349 pb[0m +- ( [31m0.0179003 pb = 0.0589817 %[0m ) 384000 ( 393999 -> 97.4 % )
integration time:   ( 3s elapsed / 2s left ) [18:45:38]
[1m2_2__e-__e+__j__j[0m : [34m[1m30.349 pb[0m +- ( [31m0.0179003 pb = 0.0589817 %[0m ) [1m exp. eff: [31m16.3068 %[0m
  reduce max for 2_2__e-__e+__j__j to 0.541301 ( eps = 0.001 -> exp. eff 0.301252 ) 
Single_Process::CalculateTotalXSec(): Calculate xs for '2_2__e-__e+__c__cb' (Comix)
Integration parameters: n_{min} = 1000, N_{opt} 7, N_{max} = 3, exponent = 1
Starting the calculation at 18:45:38. Lean back and enjoy ... .
[34m10.9439 pb[0m +- ( [31m0.34441 pb = 3.14704 %[0m ) 1000 ( 1022 -> 97.8 % )
full optimization:  ( 0s elapsed / 0s left ) [18:45:38]
[34m11.0177 pb[0m +- ( [31m0.356151 pb = 3.23254 %[0m ) 2000 ( 2038 -> 98.4 % )
full optimization:  ( 0s elapsed / 2s left ) [18:45:38]
[34m10.7446 pb[0m +- ( [31m0.151679 pb = 1.41168 %[0m ) 4000 ( 4065 -> 98.6 % )
full optimization:  ( 0s elapsed / 3s left ) [18:45:38]
[34m10.7787 pb[0m +- ( [31m0.0849295 pb = 0.787937 %[0m ) 8000 ( 8149 -> 97.9 % )
full optimization:  ( 0s elapsed / 3s left ) [18:45:38]
[34m10.7706 pb[0m +- ( [31m0.0532769 pb = 0.494652 %[0m ) 16000 ( 16321 -> 97.8 % )
full optimization:  ( 0s elapsed / 3s left ) [18:45:38]
[34m10.7291 pb[0m +- ( [31m0.033164 pb = 0.309104 %[0m ) 32000 ( 32665 -> 97.8 % )
full optimization:  ( 0s elapsed / 3s left ) [18:45:38]
[34m10.7252 pb[0m +- ( [31m0.0213323 pb = 0.198899 %[0m ) 64000 ( 65389 -> 97.7 % )
full optimization:  ( 0s elapsed / 3s left ) [18:45:38]
[34m10.7035 pb[0m +- ( [31m0.014118 pb = 0.131901 %[0m ) 128000 ( 130908 -> 97.6 % )
integration time:   ( 0s elapsed / 3s left ) [18:45:39]
[34m10.6893 pb[0m +- ( [31m0.00972717 pb = 0.0909992 %[0m ) 256000 ( 261991 -> 97.6 % )
integration time:   ( 1s elapsed / 2s left ) [18:45:39]
[34m10.6872 pb[0m +- ( [31m0.00785475 pb = 0.0734967 %[0m ) 384000 ( 393093 -> 97.6 % )
integration time:   ( 2s elapsed / 1s left ) [18:45:40]
[1m2_2__e-__e+__c__cb[0m : [34m[1m10.6872 pb[0m +- ( [31m0.00785475 pb = 0.0734967 %[0m ) [1m exp. eff: [31m8.86204 %[0m
Single_Process::CalculateTotalXSec(): Calculate xs for '2_2__e-__e+__b__bb' (Comix)
Integration parameters: n_{min} = 1000, N_{opt} 7, N_{max} = 3, exponent = 1
Starting the calculation at 18:45:40. Lean back and enjoy ... .
[34m9.68623 pb[0m +- ( [31m0.191891 pb = 1.98107 %[0m ) 1000 ( 1017 -> 98.3 % )
full optimization:  ( 0s elapsed / 0s left ) [18:45:40]
[34m9.84953 pb[0m +- ( [31m0.181352 pb = 1.84122 %[0m ) 2000 ( 2032 -> 98.5 % )
full optimization:  ( 0s elapsed / 2s left ) [18:45:40]
[34m9.81623 pb[0m +- ( [31m0.0944525 pb = 0.962207 %[0m ) 4000 ( 4070 -> 98.1 % )
full optimization:  ( 0s elapsed / 2s left ) [18:45:40]
[34m9.77368 pb[0m +- ( [31m0.0526595 pb = 0.538789 %[0m ) 8000 ( 8167 -> 97.6 % )
full optimization:  ( 0s elapsed / 3s left ) [18:45:40]
[34m9.76369 pb[0m +- ( [31m0.0315286 pb = 0.322916 %[0m ) 16000 ( 16357 -> 97.6 % )
full optimization:  ( 0s elapsed / 3s left ) [18:45:40]
[34m9.75422 pb[0m +- ( [31m0.0200876 pb = 0.205938 %[0m ) 32000 ( 32759 -> 97.5 % )
full optimization:  ( 0s elapsed / 3s left ) [18:45:41]
[34m9.75805 pb[0m +- ( [31m0.0133436 pb = 0.136745 %[0m ) 64000 ( 65607 -> 97.4 % )
full optimization:  ( 0s elapsed / 3s left ) [18:45:41]
[34m9.74023 pb[0m +- ( [31m0.00917675 pb = 0.0942149 %[0m ) 128000 ( 131483 -> 97.1 % )
integration time:   ( 0s elapsed / 3s left ) [18:45:41]
[34m9.73635 pb[0m +- ( [31m0.00638508 pb = 0.0655798 %[0m ) 256000 ( 263036 -> 97.2 % )
integration time:   ( 1s elapsed / 2s left ) [18:45:42]
[34m9.73402 pb[0m +- ( [31m0.00518282 pb = 0.0532444 %[0m ) 384000 ( 394617 -> 97.2 % )
integration time:   ( 2s elapsed / 1s left ) [18:45:43]
[1m2_2__e-__e+__b__bb[0m : [34m[1m9.73402 pb[0m +- ( [31m0.00518282 pb = 0.0532444 %[0m ) [1m exp. eff: [31m27.5851 %[0m
----------------------------------------------------------
-- SHERPA generates events with the following structure --
----------------------------------------------------------
Event generation   : Weighted
Perturbative       : Signal_Processes
Perturbative       : Hard_Decays
Perturbative       : Jet_Evolution:CSS
Perturbative       : Lepton_FS_QED_Corrections:Photons
Perturbative       : Multiple_Interactions:None
Perturbative       : Minimum_Bias:None
Hadronization      : Beam_Remnants:On
Hadronization      : Hadronization:Ahadic
Hadronization      : Hadron_Decays
Userhook           : 
---------------------------------------------------------
  Event 1 ( 0s elapsed / 0s left ) -> ETA: Wed Mar 02 18:45  
  XS = 43.346 pb +- ( 43.346 pb = 100 % )  [1A  Event 2 ( 0s elapsed / 0s left ) -> ETA: Wed Mar 02 18:45  
  XS = 57.496 pb +- ( 14.15 pb = 24.61 % )  [1A  Event 3 ( 0s elapsed / 0s left ) -> ETA: Wed Mar 02 18:45  
  XS = 61.6296 pb +- ( 9.15573 pb = 14.85 % )  [1A  Event 4 ( 0s elapsed / 0s left ) -> ETA: Wed Mar 02 18:45  
  XS = 63.1411 pb +- ( 6.64818 pb = 10.52 % )  [1A  Event 5 ( 0s elapsed / 0s left ) -> ETA: Wed Mar 02 18:45  
  XS = 60.5104 pb +- ( 5.78269 pb = 9.55 % )  [1A  Event 6 ( 0s elapsed / 2m 46s left ) -> ETA: Wed Mar 02 18:48  
  XS = 59.5969 pb +- ( 4.8091 pb = 8.06 % )  [1A  Event 7 ( 0s elapsed / 2m 22s left ) -> ETA: Wed Mar 02 18:48  
  XS = 58.462 pb +- ( 4.21991 pb = 7.21 % )  [1A  Event 8 ( 0s elapsed / 2m 4s left ) -> ETA: Wed Mar 02 18:47  
  XS = 58.5269 pb +- ( 3.65512 pb = 6.24 % )  [1A  Event 9 ( 0s elapsed / 1m 51s left ) -> ETA: Wed Mar 02 18:47  
  XS = 58.114 pb +- ( 3.24985 pb = 5.59 % )  [1A  Event 10 ( 0s elapsed / 1m 39s left ) -> ETA: Wed Mar 02 18:47  
  XS = 52.8227 pb +- ( 6.03706 pb = 11.42 % )  [1A  Event 20 ( 0s elapsed / 1m 39s left ) -> ETA: Wed Mar 02 18:47  
  XS = 49.956 pb +- ( 4.92272 pb = 9.85 % )  [1A  Event 30 ( 0s elapsed / 1m 6s left ) -> ETA: Wed Mar 02 18:46  
  XS = 47.0076 pb +- ( 4.07462 pb = 8.66 % )  [1A  Event 40 ( 0s elapsed / 1m 14s left ) -> ETA: Wed Mar 02 18:46  
  XS = 46.9719 pb +- ( 3.35215 pb = 7.13 % )  [1A  Event 50 ( 0s elapsed / 1m 19s left ) -> ETA: Wed Mar 02 18:47  
  XS = 47.812 pb +- ( 2.96006 pb = 6.19 % )  [1A  Event 60 ( 0s elapsed / 1m 6s left ) -> ETA: Wed Mar 02 18:46  
  XS = 46.1197 pb +- ( 2.73878 pb = 5.93 % )  [1A  Event 70 ( 0s elapsed / 1m 11s left ) -> ETA: Wed Mar 02 18:46  
  XS = 46.4077 pb +- ( 2.48008 pb = 5.34 % )  [1A  Event 80 ( 0s elapsed / 1m 14s left ) -> ETA: Wed Mar 02 18:46  
  XS = 45.9197 pb +- ( 2.29234 pb = 4.99 % )  [1A  Event 90 ( 0s elapsed / 1m 6s left ) -> ETA: Wed Mar 02 18:46  
  XS = 46.9187 pb +- ( 2.18959 pb = 4.66 % )  [1A  Event 100 ( 0s elapsed / 1m 9s left ) -> ETA: Wed Mar 02 18:46  
  XS = 47.0528 pb +- ( 1.99838 pb = 4.24 % )  [1A  Event 200 ( 0s elapsed / 1m 9s left ) -> ETA: Wed Mar 02 18:46  
  XS = 48.8166 pb +- ( 1.43112 pb = 2.93 % )  [1A  Event 300 ( 0s elapsed / 59s left ) -> ETA: Wed Mar 02 18:46  
  XS = 49.674 pb +- ( 1.16906 pb = 2.35 % )  [1A  Event 400 ( 0s elapsed / 59s left ) -> ETA: Wed Mar 02 18:46  
  XS = 49.5026 pb +- ( 1.01675 pb = 2.05 % )  [1A  Event 500 ( 0s elapsed / 59s left ) -> ETA: Wed Mar 02 18:46  
  XS = 50.4026 pb +- ( 0.931648 pb = 1.84 % )  [1A  Event 600 ( 0s elapsed / 1m 2s left ) -> ETA: Wed Mar 02 18:46  
  XS = 50.3827 pb +- ( 0.845998 pb = 1.67 % )  [1A  Event 700 ( 0s elapsed / 1m 3s left ) -> ETA: Wed Mar 02 18:46  
  XS = 50.4309 pb +- ( 0.765243 pb = 1.51 % )  [1A  Event 800 ( 0s elapsed / 1m 4s left ) -> ETA: Wed Mar 02 18:46  
  XS = 50.436 pb +- ( 0.723321 pb = 1.43 % )  [1A  Event 900 ( 0s elapsed / 1m 3s left ) -> ETA: Wed Mar 02 18:46  
  XS = 50.2239 pb +- ( 0.684299 pb = 1.36 % )  [1A  Event 1000 ( 0s elapsed / 1m 3s left ) -> ETA: Wed Mar 02 18:46  
  XS = 50.2424 pb +- ( 0.653676 pb = 1.3 % )  [1A  Event 2000 ( 1s elapsed / 1m 12s left ) -> ETA: Wed Mar 02 18:46  
  XS = 50.3394 pb +- ( 0.461248 pb = 0.91 % )  [1A  Event 3000 ( 2s elapsed / 1m 8s left ) -> ETA: Wed Mar 02 18:46  
  XS = 50.4178 pb +- ( 0.401672 pb = 0.79 % )  [1A  Event 4000 ( 2s elapsed / 1m 5s left ) -> ETA: Wed Mar 02 18:46  
  XS = 50.4612 pb +- ( 0.339972 pb = 0.67 % )  [1A  Event 5000 ( 3s elapsed / 1m 3s left ) -> ETA: Wed Mar 02 18:46  
  XS = 50.6215 pb +- ( 0.299789 pb = 0.59 % )  [1A  Event 6000 ( 4s elapsed / 1m 3s left ) -> ETA: Wed Mar 02 18:46  
  XS = 50.8058 pb +- ( 0.271535 pb = 0.53 % )  [1A  Event 7000 ( 4s elapsed / 1m 3s left ) -> ETA: Wed Mar 02 18:46  
  XS = 50.7592 pb +- ( 0.249355 pb = 0.49 % )  [1A  Event 8000 ( 5s elapsed / 1m 2s left ) -> ETA: Wed Mar 02 18:46  
  XS = 50.787 pb +- ( 0.232253 pb = 0.45 % )  [1A  Event 9000 ( 6s elapsed / 1m 1s left ) -> ETA: Wed Mar 02 18:46  
  XS = 50.7926 pb +- ( 0.218884 pb = 0.43 % )  [1A  Event 10000 ( 6s elapsed / 59s left ) -> ETA: Wed Mar 02 18:46  
  XS = 50.8796 pb +- ( 0.206229 pb = 0.4 % )  [1A  Event 20000 ( 13s elapsed / 53s left ) -> ETA: Wed Mar 02 18:46  
  XS = 50.8342 pb +- ( 0.144964 pb = 0.28 % )  [1A  Event 30000 ( 19s elapsed / 46s left ) -> ETA: Wed Mar 02 18:46  
  XS = 50.7937 pb +- ( 0.117907 pb = 0.23 % )  [1A  Event 40000 ( 26s elapsed / 39s left ) -> ETA: Wed Mar 02 18:46  
  XS = 50.7001 pb +- ( 0.102376 pb = 0.2 % )  [1A  Event 50000 ( 33s elapsed / 33s left ) -> ETA: Wed Mar 02 18:46  
  XS = 50.7703 pb +- ( 0.0914496 pb = 0.18 % )  [1A  Event 60000 ( 39s elapsed / 26s left ) -> ETA: Wed Mar 02 18:46  
  XS = 50.8122 pb +- ( 0.0832782 pb = 0.16 % )  [1A  Event 70000 ( 46s elapsed / 20s left ) -> ETA: Wed Mar 02 18:46  
  XS = 50.8049 pb +- ( 0.0773384 pb = 0.15 % )  [1A  Event 80000 ( 53s elapsed / 13s left ) -> ETA: Wed Mar 02 18:46  
  XS = 50.7755 pb +- ( 0.0722261 pb = 0.14 % )  [1A  Event 90000 ( 59s elapsed / 6s left ) -> ETA: Wed Mar 02 18:46  
  XS = 50.8154 pb +- ( 0.0680249 pb = 0.13 % )  [1A  Event 100000 ( 66 s total ) = 1.31088e+08 evts/day                    
In Event_Handler::Finish : Summarizing the run may take some time.
--------------------------------------------------------------------------
Nominal or variation name     XS [pb]      RelDev  AbsErr [pb]      RelErr
--------------------------------------------------------------------------
[1mNominal                  [0m[34m[1m     50.7844[0m[33m         0 %[31m    0.0645322      0.12 %[0m
--------------------------------------------------------------------------
Return_Value::PrintStatistics(): Statistics {
  Generated events: 100000
  Retried phases {
    From "Hadron_Decay_Handler::RejectExclusiveChannelsFromFragmentation": 11644 (0) -> 11644.
  }
  Retried methods {
    From "Decay_Channel::GenerateKinematics": 34 (2875956) -> 0 %
  }
}
Blob_List: Momentum Fail Statistics {
}
Decay_Channel: Kinematics max fail statistics {
  B --> D*(2007)b D*(2010)+ K pi+b  maximal fail by 2.58188.
  B --> D*(2010)+ D+b K pi  maximal fail by 1.52193.
  B(s) --> f(0)(980) J/psi(1S)  maximal fail by 2.71442.
  B+ --> D D*(2010)+b K+ pi+  maximal fail by 1.4146.
  B+ --> D Db K+ pi  maximal fail by 1.30071.
  B+ --> D*(2007) D*(2007)b K+ pi  maximal fail by 4.53309.
  B+ --> D*(2007) D*(2010)+b K+ pi+  maximal fail by 2.22631.
  B+ --> D*(2007) Db K+ pi  maximal fail by 2.63769.
  B+ --> D*(2007)b D*(2010)+ K pi  maximal fail by 5.55037.
  B+ --> Db D*(2010)+ K pi  maximal fail by 1.86352.
  D --> Kb pi+ pi+b pi  maximal fail by 1.36476.
}
WARNING: You are using an unsupported development branch.
------------------------------------------------------------------------
[1mPlease cite the publications listed in '[31mReferences.tex[0m[1m'.[0m
  Extract the bibtex list by running 'get_bibtex References.tex'
  or email the file to 'slaclib2@slac.stanford.edu', subject 'generate'.
------------------------------------------------------------------------
Reconnection_Handler::~Reconnection_Handler: reconnection handler winds down with 0 errors overall.
Gluon_Splitter::~Gluon_Splitter with 4570 kinematic fails.
Time: 1m 15s on Wed Mar  2 18:46:49 2022
 (User: 1m 13s, System: 0s, Children User: 0s, Children System: 0s)
