Welcome to Sherpa, Peter Meinzinger on DA-FVFF6767Q05F. Initialization of framework underway.
The local time is Thu Mar  3 09:30:34 2022.
Run_Parameter::Init(): Cannot set memory limit.
Run_Parameter::Init(): Setting memory limit to 8.58993e+09 GB.
Random::SetSeed(): Seed set to 12356
-----------------------------------------------------------------------------
-----------    Event generation run with SHERPA started .......   -----------
-----------------------------------------------------------------------------
................................................ |       +                   
................................................ ||  |       +  +            
...................................        ....  | |         /   +           
................. ................   _,_ |  ....  ||         +|  +  +        
...............................  __.'  ,\|  ...  ||    /    +|          +    
.............................. (  \    \   ...  | |  |   + + \         +   
.............................  (    \   -/  .... ||       +    |          +  
........ ...................  <S   /()))))~~~~~~~~##     +     /\    +       
............................ (!H   (~~)))))~~~~~~#/     +  +    |  +         
................ ........... (!E   (~~~)))))     /|/    +         +          
............................ (!R   (~~~)))))   |||   + +            +        
..... ...................... (!P    (~~~~)))   /|  + +          +            
............................ (!A>    (~~~~~~~~~##        + +        +        
............................. ~~(!    '~~~~~~~ \       +     + +      +      
...............................  `~~~QQQQQDb //   |         + + +        +   
........................ ..........   IDDDDP||     \  + + + + +             +
....................................  IDDDI||       \                      + 
.................................... IHD HD||         \ + +  + + + + +      +
...................................  IHD ##|            :-) + +\          +  
......... ............... ......... IHI ## /      /   +  + + + +\       +    
................................... IHI/ /       /      + + + +        +     
................................... ## | | /    / + +      + + /      +      
....................... /TT\ .....  ##/ ///  / + + + + + + +/       +        
......................./TTT/T\ ... /TT\/\\\ / + + + + + + +/   \         +   
....................../TTT/TTTT\...|TT/T\\\/   +    ++  + /              
-----------------------------------------------------------------------------

     SHERPA version 3.0.0alpha1 (Dhaulagiri)
                                                                             
     Authors:        Enrico Bothmann, Stefan Hoeche, Frank Krauss,           
                     Silvan Kuttimalai, Marek Schoenherr, Holger Schulz,     
                     Steffen Schumann, Frank Siegert, Korinna Zapp           
     Former Authors: Timo Fischer, Tanju Gleisberg, Hendrik Hoeth,           
                     Ralf Kuhn, Thomas Laubrich, Andreas Schaelicke,         
                     Jan Winter                                              
                                                                             
     This program uses a lot of genuine and original research work           
     by other people. Users are encouraged to refer to                       
     the various original publications.                                      
                                                                             
     Users are kindly asked to refer to the documentation                    
     published under JHEP 02(2009)007                                        
                                                                             
     Please visit also our homepage                                          
                                                                             
       http://sherpa.hepforge.org                                            
                                                                             
     for news, bugreports, updates and new releases.                         
                                                                             
-----------------------------------------------------------------------------
WARNING: You are using an unsupported development branch.
Git branch 327-bugfixing-hera, revision 1d3501c0eecaef164fbbb3e96299f13244d3575c.
===> PHASIC++/Channels has local modifications f0b46af64fc087b4c9a7ebd970bec88c <===
Beam_Spectra_Handler: type = Collider Setup
    for P+ (on = 0, p = (6500,0,0,6500))
    and P+ (on = 0, p = (6500,0,0,-6500)).
CTEQ6_Fortran_Interface::CTEQ6_Fortran_Interface(): Init member 1.
PDF set 'cteq6m' loaded for beam 1 (P+).
CTEQ6_Fortran_Interface::CTEQ6_Fortran_Interface(): Init member 1.
PDF set 'cteq6m' loaded for beam 2 (P+).
ISR_Handler: type = hadron_hadron
    for P+ (internal structure = 1)
    and P+ (internal structure = 1)
CTEQ6_Fortran_Interface::CTEQ6_Fortran_Interface(): Init member 1.
CTEQ6_Fortran_Interface::CTEQ6_Fortran_Interface(): Init member 1.
ISR_Handler: type = hadron_hadron
    for P+ (internal structure = 1)
    and P+ (internal structure = 1)
Initialized the ISR.
Standard_Model::FixEWParameters() {
  Input scheme: alphamZ
                alpha(m_Z) scheme, input: 1/\alphaQED(m_Z), m_W, m_Z, m_h, widths
  Ren. scheme:  alphamZ
                alpha(m_Z)
  Parameters:   sin^2(\theta_W) = 0.222928 - 0.00110708 i
                vev             = 243.034 - 3.75492 i
}
Running_AlphaQED::PrintSummary() {
  Setting \alpha according to EW scheme
  1/\alpha(0)   = 128.802
  1/\alpha(def) = 128.802
}
One_Running_AlphaS::PrintSummary() {
  Setting \alpha_s according to PDF
  perturbative order 1
  \alpha_s(M_Z) = 0.118
}
One_Running_AlphaS::PrintSummary() {
  Setting \alpha_s according to PDF
  perturbative order 1
  \alpha_s(M_Z) = 0.118
}
List of Particle Data 
     IDName     kfc            Mass           Width   Stable  Massive   Active          Yukawa
          d       1            0.01               0        1        0        1               0
          u       2           0.005               0        1        0        1               0
          s       3             0.2               0        1        0        1               0
          c       4            1.42               0        1        1        1            1.42
          b       5            4.92               0        1        1        1            4.92
          t       6          173.21               2        0        1        1          173.21
         e-      11        0.000511               0        1        0        1               0
         ve      12               0               0        1        0        1               0
        mu-      13           0.105               0        1        0        1               0
        vmu      14               0               0        1        0        1               0
       tau-      15           1.777     2.26735e-12        0        0        1               0
       vtau      16               0               0        1        0        1               0
          G      21               0               0        1        0        1               0
          P      22               0               0        1        0        1               0
          Z      23         91.1876          2.4952        0        1        1         91.1876
         W+      24          80.385           2.085        0        1        1          80.385
         h0      25             125         0.00407        0        1        1             125
  Instanton     999               0               0        0        0        1               0
List of Particle Containers 
     IDName     kfc     Constituents
          l      90     {e-,e+,mu-,mu+,tau-,tau+}
          v      91     {ve,veb,vmu,vmub,vtau,vtaub}
          f      92     {d,db,u,ub,s,sb,e-,e+,mu-,mu+,tau-,tau+,ve,veb,vmu,vmub,vtau,vtaub}
          j      93     {d,db,u,ub,s,sb,G}
          Q      94     {d,db,u,ub,s,sb}
        ewj      98     {d,db,u,ub,s,sb,G,P}
Initialized the Shower_Handler.
+-----------------------------------------+
|   X   X   X XXXX  XXX  XXX  XXX         |
|  X X  XX XX X    X      X  X     X   X  |
| X   X X X X XXX  X XXX  X  X    XXX XXX |
| XXXXX X   X X    X   X  X  X     X   X  |
| X   X X   X XXXX  XXX  XXX  XXX         |
+-----------------------------------------+
| please cite: JHEP 0202:044,2002         |
+-----------------------------------------+
Matrix_Element_Handler::Matrix_Element_Handler(): Set pilot run mode to 0.
ME_Generator_Base::SetPSMasses(): Massive PS flavours for Comix: (e-,e+,mu-,mu+,tau-,tau+)
+----------------------------------+
|                                  |
|      [31mCCC[0m  [32mOOO[0m  [34mM[0m   [34mM[0m I [33mX[0m   [33mX[0m     |
|     [31mC[0m    [32mO[0m   [32mO[0m [34mMM[0m [34mMM[0m I  [33mX[0m [33mX[0m      |
|     [31mC[0m    [32mO[0m   [32mO[0m [34mM[0m [34mM[0m [34mM[0m I   [33mX[0m       |
|     [31mC[0m    [32mO[0m   [32mO[0m [34mM[0m   [34mM[0m I  [33mX[0m [33mX[0m      |
|      [31mCCC[0m  [32mOOO[0m  [34mM[0m   [34mM[0m I [33mX[0m   [33mX[0m     |
|                                  |
+==================================+
|  Color dressed  Matrix Elements  |
|     http://comix.freacafe.de     |
|   please cite  JHEP12(2008)039   |
+----------------------------------+
ME_Generator_Base::SetPSMasses(): Massive PS flavours for Amegic: (e-,e+,mu-,mu+,tau-,tau+)
ME_Generator_Base::SetPSMasses(): Massive PS flavours for Internal: (e-,e+,mu-,mu+,tau-,tau+)
Matrix_Element_Handler::BuildProcesses(): Looking for processes [3 generators, 30 processes]Matrix_Element_Handler::BuildSingleProcessList(): Error in initialising ISR (P+ -> e-) x (P+ -> j). Ignoring process.
Matrix_Element_Handler::BuildSingleProcessList(): Error in initialising ISR (P+ -> e+) x (P+ -> j). Ignoring process.
............Matrix_Element_Handler::BuildSingleProcessList(): Error in initialising ISR (P+ -> P) x (P+ -> j). Ignoring process.
Matrix_Element_Handler::BuildSingleProcessList(): Error in initialising ISR (P+ -> e-) x (P+ -> e+). Ignoring process.
Matrix_Element_Handler::BuildSingleProcessList(): Error in initialising ISR (P+ -> P) x (P+ -> P). Ignoring process.
Matrix_Element_Handler::BuildSingleProcessList(): Error in initialising ISR (P+ -> e-) x (P+ -> c). Ignoring process.
Matrix_Element_Handler::BuildSingleProcessList(): Error in initialising ISR (P+ -> e+) x (P+ -> c). Ignoring process.
Matrix_Element_Handler::BuildSingleProcessList(): Error in initialising ISR (P+ -> e-) x (P+ -> cb). Ignoring process.
Matrix_Element_Handler::BuildSingleProcessList(): Error in initialising ISR (P+ -> e+) x (P+ -> cb). Ignoring process.
.....Matrix_Element_Handler::BuildSingleProcessList(): Error in initialising ISR (P+ -> P) x (P+ -> j). Ignoring process.
Matrix_Element_Handler::BuildSingleProcessList(): Error in initialising ISR (P+ -> e-) x (P+ -> e+). Ignoring process.
Matrix_Element_Handler::BuildSingleProcessList(): Error in initialising ISR (P+ -> P) x (P+ -> P). Ignoring process.
..Matrix_Element_Handler::BuildSingleProcessList(): Error in initialising ISR (P+ -> e-) x (P+ -> b). Ignoring process.
Matrix_Element_Handler::BuildSingleProcessList(): Error in initialising ISR (P+ -> e+) x (P+ -> b). Ignoring process.
Matrix_Element_Handler::BuildSingleProcessList(): Error in initialising ISR (P+ -> e-) x (P+ -> bb). Ignoring process.
Matrix_Element_Handler::BuildSingleProcessList(): Error in initialising ISR (P+ -> e+) x (P+ -> bb). Ignoring process.
.....Matrix_Element_Handler::BuildSingleProcessList(): Error in initialising ISR (P+ -> P) x (P+ -> j). Ignoring process.
Matrix_Element_Handler::BuildSingleProcessList(): Error in initialising ISR (P+ -> e-) x (P+ -> e+). Ignoring process.
Matrix_Element_Handler::BuildSingleProcessList(): Error in initialising ISR (P+ -> P) x (P+ -> P). Ignoring process.
.. done ( 23 MB, 0s / 0s ).
Matrix_Element_Handler::InitializeProcesses(): Performing tests.......................... done ( 23 MB, 0s / 0s ).
Matrix_Element_Handler::InitializeProcesses(): Initializing scales done ( 23 MB, 0s / 0s ).
Initialized the Matrix_Element_Handler for the hard processes.
Initialized the Beam_Remnant_Handler.
Hadron_Init::Init(): Initializing kf table for hadrons.
Initialized the Fragmentation_Handler.
Initialized the Soft_Collision_Handler.
Hadron_Decay_Map::Read:   Initializing HadronDecays.dat. This may take some time.
[34mHadron_Decay_Channel::ProcessResult[0m:([32m"Found nan in K --> K(L) . Ignoring and continuing."[0m)
[34mHadron_Decay_Channel::ProcessResult[0m:([32m"Found nan in K --> K(S) . Ignoring and continuing."[0m)
Initialized the Hadron_Decay_Handler, Decay model = Hadrons
Initialized the Soft_Photon_Handler.
Initialized the Reweighting.
ISR_Channels::CheckForStructuresFromME for 0: (none)
Process_Group::CalculateTotalXSec(): Calculate xs for '2_2__j__j__j__j' (Comix)
Integration parameters: n_{min} = 1000, N_{opt} 7, N_{max} = 3, exponent = 1
Starting the calculation at 09:30:34. Lean back and enjoy ... .
[34m5.48833e+09 pb[0m +- ( [31m9.27822e+08 pb = 16.9054 %[0m ) 1000 ( 3067 -> 32.6 % )
full optimization:  ( 0s elapsed / 45s left ) [09:30:35]
[34m3.73108e+09 pb[0m +- ( [31m6.31086e+08 pb = 16.9143 %[0m ) 2000 ( 4665 -> 62.5 % )
full optimization:  ( 0s elapsed / 40s left ) [09:30:35]
[34m4.34888e+09 pb[0m +- ( [31m3.04506e+08 pb = 7.00194 %[0m ) 4000 ( 7626 -> 67.5 % )
full optimization:  ( 0s elapsed / 39s left ) [09:30:35]
[34m4.44262e+09 pb[0m +- ( [31m1.71588e+08 pb = 3.86232 %[0m ) 8000 ( 12534 -> 81.4 % )
full optimization:  ( 0s elapsed / 37s left ) [09:30:35]
[34m4.49887e+09 pb[0m +- ( [31m9.67783e+07 pb = 2.15117 %[0m ) 16000 ( 21800 -> 86.3 % )
full optimization:  ( 1s elapsed / 35s left ) [09:30:36]
[34m4.46235e+09 pb[0m +- ( [31m5.57028e+07 pb = 1.24828 %[0m ) 32000 ( 39434 -> 90.7 % )
full optimization:  ( 2s elapsed / 33s left ) [09:30:37]
[34m4.44213e+09 pb[0m +- ( [31m3.29809e+07 pb = 0.742456 %[0m ) 64000 ( 73986 -> 92.6 % )
full optimization:  ( 4s elapsed / 31s left ) [09:30:39]
[34m4.44422e+09 pb[0m +- ( [31m2.04814e+07 pb = 0.460855 %[0m ) 128000 ( 142352 -> 93.6 % )
integration time:   ( 8s elapsed / 27s left ) [09:30:43]
[34m4.43147e+09 pb[0m +- ( [31m1.70659e+07 pb = 0.385106 %[0m ) 256000 ( 296864 -> 86.1 % )
integration time:   ( 17s elapsed / 18s left ) [09:30:52]
[34m4.44581e+09 pb[0m +- ( [31m1.45313e+07 pb = 0.326855 %[0m ) 384000 ( 451095 -> 84.8 % )
integration time:   ( 26s elapsed / 9s left ) [09:31:01]
[1m2_2__j__j__j__j[0m : [34m[1m4.44581e+09 pb[0m +- ( [31m1.45313e+07 pb = 0.326855 %[0m ) [1m exp. eff: [31m1.17724 %[0m
  reduce max for 2_2__j__j__j__j to 0.745081 ( eps = 0.001 -> exp. eff 0.0158001 ) 
Process_Group::CalculateTotalXSec(): Calculate xs for '2_2__j__j__c__cb' (Comix)
Integration parameters: n_{min} = 1000, N_{opt} 7, N_{max} = 3, exponent = 1
Starting the calculation at 09:31:01. Lean back and enjoy ... .
[34m1.80253e+07 pb[0m +- ( [31m2.9995e+06 pb = 16.6405 %[0m ) 1000 ( 4426 -> 22.5 % )
full optimization:  ( 0s elapsed / 10s left ) [09:31:01]
[34m1.81813e+07 pb[0m +- ( [31m3.11794e+06 pb = 17.1491 %[0m ) 2000 ( 6395 -> 50.7 % )
full optimization:  ( 0s elapsed / 10s left ) [09:31:01]
[34m1.82e+07 pb[0m +- ( [31m1.46848e+06 pb = 8.06857 %[0m ) 4000 ( 10255 -> 51.8 % )
full optimization:  ( 0s elapsed / 10s left ) [09:31:02]
[34m1.80655e+07 pb[0m +- ( [31m736896 pb = 4.07903 %[0m ) 8000 ( 17029 -> 59 % )
full optimization:  ( 0s elapsed / 10s left ) [09:31:02]
[34m1.82318e+07 pb[0m +- ( [31m410062 pb = 2.24916 %[0m ) 16000 ( 28548 -> 69.4 % )
full optimization:  ( 0s elapsed / 9s left ) [09:31:02]
[34m1.81388e+07 pb[0m +- ( [31m239876 pb = 1.32245 %[0m ) 32000 ( 48395 -> 80.6 % )
full optimization:  ( 0s elapsed / 8s left ) [09:31:02]
[34m1.80751e+07 pb[0m +- ( [31m141146 pb = 0.780887 %[0m ) 64000 ( 86459 -> 84 % )
full optimization:  ( 1s elapsed / 7s left ) [09:31:02]
[34m1.81471e+07 pb[0m +- ( [31m84877.8 pb = 0.46772 %[0m ) 128000 ( 161480 -> 85.3 % )
integration time:   ( 2s elapsed / 6s left ) [09:31:03]
[34m1.81429e+07 pb[0m +- ( [31m52975.8 pb = 0.291992 %[0m ) 256000 ( 311709 -> 85.2 % )
integration time:   ( 4s elapsed / 4s left ) [09:31:05]
[34m1.81509e+07 pb[0m +- ( [31m41028.3 pb = 0.226041 %[0m ) 384000 ( 461545 -> 85.3 % )
integration time:   ( 6s elapsed / 2s left ) [09:31:08]
[1m2_2__j__j__c__cb[0m : [34m[1m1.81509e+07 pb[0m +- ( [31m41028.3 pb = 0.226041 %[0m ) [1m exp. eff: [31m6.31123 %[0m
  reduce max for 2_2__j__j__c__cb to 0.480902 ( eps = 0.001 -> exp. eff 0.131237 ) 
Single_Process::CalculateTotalXSec(): Calculate xs for '2_2__cb__cb__cb__cb' (Comix)
Integration parameters: n_{min} = 1000, N_{opt} 7, N_{max} = 3, exponent = 1
Starting the calculation at 09:31:08. Lean back and enjoy ... .
[34m542624 pb[0m +- ( [31m45540.1 pb = 8.39256 %[0m ) 1000 ( 1555 -> 64.3 % )
full optimization:  ( 0s elapsed / 5s left ) [09:31:08]
[34m608675 pb[0m +- ( [31m52617.9 pb = 8.64467 %[0m ) 2000 ( 2923 -> 73 % )
full optimization:  ( 0s elapsed / 5s left ) [09:31:08]
[34m633402 pb[0m +- ( [31m24839.3 pb = 3.92157 %[0m ) 4000 ( 5608 -> 74.4 % )
full optimization:  ( 0s elapsed / 5s left ) [09:31:08]
[34m636245 pb[0m +- ( [31m13862.7 pb = 2.17883 %[0m ) 8000 ( 10989 -> 74.3 % )
full optimization:  ( 0s elapsed / 5s left ) [09:31:08]
[34m635396 pb[0m +- ( [31m8160.1 pb = 1.28425 %[0m ) 16000 ( 21779 -> 74.1 % )
full optimization:  ( 0s elapsed / 4s left ) [09:31:08]
[34m635277 pb[0m +- ( [31m5013.31 pb = 0.789153 %[0m ) 32000 ( 41410 -> 81.5 % )
full optimization:  ( 0s elapsed / 4s left ) [09:31:08]
[34m633204 pb[0m +- ( [31m3157.79 pb = 0.4987 %[0m ) 64000 ( 79681 -> 83.6 % )
full optimization:  ( 0s elapsed / 4s left ) [09:31:08]
[34m629866 pb[0m +- ( [31m2034.99 pb = 0.323083 %[0m ) 128000 ( 154549 -> 85.4 % )
integration time:   ( 1s elapsed / 3s left ) [09:31:09]
[34m629470 pb[0m +- ( [31m1395.95 pb = 0.221766 %[0m ) 256000 ( 307891 -> 84.1 % )
integration time:   ( 2s elapsed / 2s left ) [09:31:10]
[34m629580 pb[0m +- ( [31m1128.29 pb = 0.179214 %[0m ) 384000 ( 461513 -> 83.8 % )
integration time:   ( 3s elapsed / 1s left ) [09:31:11]
[1m2_2__cb__cb__cb__cb[0m : [34m[1m629580 pb[0m +- ( [31m1128.29 pb = 0.179214 %[0m ) [1m exp. eff: [31m10.8992 %[0m
Single_Process::CalculateTotalXSec(): Calculate xs for '2_2__c__c__c__c' (Comix)
Integration parameters: n_{min} = 1000, N_{opt} 7, N_{max} = 3, exponent = 1
Starting the calculation at 09:31:11. Lean back and enjoy ... .
[34m617211 pb[0m +- ( [31m51888.6 pb = 8.40695 %[0m ) 1000 ( 1516 -> 65.9 % )
full optimization:  ( 0s elapsed / 5s left ) [09:31:11]
[34m606351 pb[0m +- ( [31m57269.3 pb = 9.44491 %[0m ) 2000 ( 2847 -> 75.1 % )
full optimization:  ( 0s elapsed / 5s left ) [09:31:11]
[34m624741 pb[0m +- ( [31m25371.6 pb = 4.06114 %[0m ) 4000 ( 5625 -> 71.9 % )
full optimization:  ( 0s elapsed / 5s left ) [09:31:11]
[34m639241 pb[0m +- ( [31m13923.6 pb = 2.17814 %[0m ) 8000 ( 11050 -> 73.7 % )
full optimization:  ( 0s elapsed / 5s left ) [09:31:11]
[34m630849 pb[0m +- ( [31m8088.44 pb = 1.28215 %[0m ) 16000 ( 21679 -> 75.2 % )
full optimization:  ( 0s elapsed / 5s left ) [09:31:11]
[34m626805 pb[0m +- ( [31m4949.06 pb = 0.789569 %[0m ) 32000 ( 41160 -> 82.1 % )
full optimization:  ( 0s elapsed / 4s left ) [09:31:11]
[34m627422 pb[0m +- ( [31m3117.89 pb = 0.496937 %[0m ) 64000 ( 79086 -> 84.3 % )
full optimization:  ( 0s elapsed / 4s left ) [09:31:11]
[34m628146 pb[0m +- ( [31m2010.58 pb = 0.320081 %[0m ) 128000 ( 153642 -> 85.8 % )
integration time:   ( 1s elapsed / 3s left ) [09:31:12]
[34m627408 pb[0m +- ( [31m1372.82 pb = 0.218808 %[0m ) 256000 ( 305582 -> 84.7 % )
integration time:   ( 2s elapsed / 2s left ) [09:31:13]
[34m627317 pb[0m +- ( [31m1107.2 pb = 0.176498 %[0m ) 384000 ( 457728 -> 84.5 % )
integration time:   ( 3s elapsed / 1s left ) [09:31:14]
[1m2_2__c__c__c__c[0m : [34m[1m627317 pb[0m +- ( [31m1107.2 pb = 0.176498 %[0m ) [1m exp. eff: [31m11.5377 %[0m
Single_Process::CalculateTotalXSec(): Calculate xs for '2_2__c__cb__c__cb' (Comix)
Integration parameters: n_{min} = 1000, N_{opt} 7, N_{max} = 3, exponent = 1
Starting the calculation at 09:31:14. Lean back and enjoy ... .
[34m1.4352e+06 pb[0m +- ( [31m160260 pb = 11.1664 %[0m ) 1000 ( 1628 -> 61.4 % )
full optimization:  ( 0s elapsed / 5s left ) [09:31:14]
[34m1.45971e+06 pb[0m +- ( [31m157847 pb = 10.8136 %[0m ) 2000 ( 3063 -> 69.6 % )
full optimization:  ( 0s elapsed / 5s left ) [09:31:14]
[34m1.39252e+06 pb[0m +- ( [31m60234.6 pb = 4.32557 %[0m ) 4000 ( 6028 -> 67.4 % )
full optimization:  ( 0s elapsed / 6s left ) [09:31:14]
[34m1.4223e+06 pb[0m +- ( [31m30327.1 pb = 2.13226 %[0m ) 8000 ( 11606 -> 71.7 % )
full optimization:  ( 0s elapsed / 5s left ) [09:31:14]
[34m1.41523e+06 pb[0m +- ( [31m16944.5 pb = 1.1973 %[0m ) 16000 ( 22559 -> 73 % )
full optimization:  ( 0s elapsed / 5s left ) [09:31:14]
[34m1.4281e+06 pb[0m +- ( [31m10053.7 pb = 0.703994 %[0m ) 32000 ( 43621 -> 75.9 % )
full optimization:  ( 0s elapsed / 4s left ) [09:31:14]
[34m1.43052e+06 pb[0m +- ( [31m6171.57 pb = 0.431422 %[0m ) 64000 ( 84053 -> 79.1 % )
full optimization:  ( 0s elapsed / 4s left ) [09:31:15]
[34m1.42992e+06 pb[0m +- ( [31m3879.29 pb = 0.271295 %[0m ) 128000 ( 163118 -> 80.9 % )
integration time:   ( 1s elapsed / 3s left ) [09:31:15]
[34m1.43136e+06 pb[0m +- ( [31m2583.25 pb = 0.180475 %[0m ) 256000 ( 322983 -> 80.3 % )
integration time:   ( 2s elapsed / 2s left ) [09:31:17]
[34m1.43016e+06 pb[0m +- ( [31m2061.99 pb = 0.144179 %[0m ) 384000 ( 482827 -> 80.2 % )
integration time:   ( 3s elapsed / 1s left ) [09:31:18]
[1m2_2__c__cb__c__cb[0m : [34m[1m1.43016e+06 pb[0m +- ( [31m2061.99 pb = 0.144179 %[0m ) [1m exp. eff: [31m11.4856 %[0m
Process_Group::CalculateTotalXSec(): Calculate xs for '2_2__c__cb__j__j' (Comix)
Integration parameters: n_{min} = 1000, N_{opt} 7, N_{max} = 3, exponent = 1
Starting the calculation at 09:31:18. Lean back and enjoy ... .
[34m256663 pb[0m +- ( [31m16745.9 pb = 6.5245 %[0m ) 1000 ( 1492 -> 67 % )
full optimization:  ( 0s elapsed / 5s left ) [09:31:18]
[34m236663 pb[0m +- ( [31m15002.6 pb = 6.33924 %[0m ) 2000 ( 2884 -> 71.8 % )
full optimization:  ( 0s elapsed / 12s left ) [09:31:18]
[34m248472 pb[0m +- ( [31m7808.65 pb = 3.14267 %[0m ) 4000 ( 5451 -> 77.9 % )
full optimization:  ( 0s elapsed / 10s left ) [09:31:18]
[34m257022 pb[0m +- ( [31m4814.23 pb = 1.87308 %[0m ) 8000 ( 10375 -> 81.2 % )
full optimization:  ( 0s elapsed / 9s left ) [09:31:18]
[34m258020 pb[0m +- ( [31m3062.7 pb = 1.187 %[0m ) 16000 ( 20114 -> 82.1 % )
full optimization:  ( 0s elapsed / 8s left ) [09:31:18]
[34m258252 pb[0m +- ( [31m1946.6 pb = 0.753758 %[0m ) 32000 ( 37893 -> 89.9 % )
full optimization:  ( 0s elapsed / 8s left ) [09:31:18]
[34m256859 pb[0m +- ( [31m1247.44 pb = 0.485651 %[0m ) 64000 ( 72706 -> 91.9 % )
full optimization:  ( 1s elapsed / 7s left ) [09:31:19]
[34m256551 pb[0m +- ( [31m812.8 pb = 0.316819 %[0m ) 128000 ( 141157 -> 93.4 % )
integration time:   ( 2s elapsed / 6s left ) [09:31:20]
[34m255718 pb[0m +- ( [31m556.309 pb = 0.217547 %[0m ) 256000 ( 279907 -> 92.6 % )
integration time:   ( 3s elapsed / 4s left ) [09:31:22]
[34m255280 pb[0m +- ( [31m449.686 pb = 0.176154 %[0m ) 384000 ( 418909 -> 92.4 % )
integration time:   ( 5s elapsed / 2s left ) [09:31:24]
[1m2_2__c__cb__j__j[0m : [34m[1m255280 pb[0m +- ( [31m449.686 pb = 0.176154 %[0m ) [1m exp. eff: [31m5.36917 %[0m
  reduce max for 2_2__c__cb__j__j to 0.671748 ( eps = 0.001 -> exp. eff 0.0799283 ) 
Process_Group::CalculateTotalXSec(): Calculate xs for '2_2__j__j__b__bb' (Comix)
Integration parameters: n_{min} = 1000, N_{opt} 7, N_{max} = 3, exponent = 1
Starting the calculation at 09:31:24. Lean back and enjoy ... .
[34m1.3227e+07 pb[0m +- ( [31m1.14378e+06 pb = 8.64732 %[0m ) 1000 ( 2511 -> 39.8 % )
full optimization:  ( 0s elapsed / 10s left ) [09:31:24]
[34m1.64942e+07 pb[0m +- ( [31m1.40742e+06 pb = 8.53281 %[0m ) 2000 ( 4134 -> 61.6 % )
full optimization:  ( 0s elapsed / 10s left ) [09:31:24]
[34m1.51001e+07 pb[0m +- ( [31m619886 pb = 4.10517 %[0m ) 4000 ( 7672 -> 56.5 % )
full optimization:  ( 0s elapsed / 10s left ) [09:31:24]
[34m1.48224e+07 pb[0m +- ( [31m354176 pb = 2.38947 %[0m ) 8000 ( 14554 -> 58.1 % )
full optimization:  ( 0s elapsed / 10s left ) [09:31:24]
[34m1.49288e+07 pb[0m +- ( [31m214967 pb = 1.43995 %[0m ) 16000 ( 27460 -> 61.9 % )
full optimization:  ( 0s elapsed / 9s left ) [09:31:24]
[34m1.485e+07 pb[0m +- ( [31m135246 pb = 0.910749 %[0m ) 32000 ( 51774 -> 65.8 % )
full optimization:  ( 0s elapsed / 9s left ) [09:31:24]
[34m1.484e+07 pb[0m +- ( [31m87377.2 pb = 0.588794 %[0m ) 64000 ( 100115 -> 66.1 % )
full optimization:  ( 1s elapsed / 7s left ) [09:31:25]
[34m1.47808e+07 pb[0m +- ( [31m57839.7 pb = 0.391315 %[0m ) 128000 ( 196558 -> 66.3 % )
integration time:   ( 2s elapsed / 6s left ) [09:31:26]
[34m1.4766e+07 pb[0m +- ( [31m39733 pb = 0.269085 %[0m ) 256000 ( 389949 -> 66.2 % )
integration time:   ( 4s elapsed / 4s left ) [09:31:28]
[34m1.47541e+07 pb[0m +- ( [31m32102.8 pb = 0.217586 %[0m ) 384000 ( 583536 -> 66.1 % )
integration time:   ( 6s elapsed / 2s left ) [09:31:30]
[1m2_2__j__j__b__bb[0m : [34m[1m1.47541e+07 pb[0m +- ( [31m32102.8 pb = 0.217586 %[0m ) [1m exp. eff: [31m5.51281 %[0m
  reduce max for 2_2__j__j__b__bb to 0.496528 ( eps = 0.001 -> exp. eff 0.111027 ) 
Single_Process::CalculateTotalXSec(): Calculate xs for '2_2__bb__bb__bb__bb' (Comix)
Integration parameters: n_{min} = 1000, N_{opt} 7, N_{max} = 3, exponent = 1
Starting the calculation at 09:31:30. Lean back and enjoy ... .
[34m130044 pb[0m +- ( [31m12295 pb = 9.45445 %[0m ) 1000 ( 2005 -> 49.8 % )
full optimization:  ( 0s elapsed / 5s left ) [09:31:30]
[34m105585 pb[0m +- ( [31m11108.4 pb = 10.5209 %[0m ) 2000 ( 3713 -> 58.5 % )
full optimization:  ( 0s elapsed / 5s left ) [09:31:30]
[34m110700 pb[0m +- ( [31m4722.19 pb = 4.26577 %[0m ) 4000 ( 7515 -> 52.6 % )
full optimization:  ( 0s elapsed / 6s left ) [09:31:30]
[34m115167 pb[0m +- ( [31m2625.71 pb = 2.27992 %[0m ) 8000 ( 14998 -> 53.4 % )
full optimization:  ( 0s elapsed / 6s left ) [09:31:30]
[34m115070 pb[0m +- ( [31m1575.55 pb = 1.36922 %[0m ) 16000 ( 28333 -> 59.9 % )
full optimization:  ( 0s elapsed / 5s left ) [09:31:30]
[34m114736 pb[0m +- ( [31m971.683 pb = 0.846888 %[0m ) 32000 ( 54118 -> 62 % )
full optimization:  ( 0s elapsed / 5s left ) [09:31:30]
[34m115041 pb[0m +- ( [31m618.012 pb = 0.537211 %[0m ) 64000 ( 104003 -> 64.1 % )
full optimization:  ( 0s elapsed / 5s left ) [09:31:31]
[34m115376 pb[0m +- ( [31m403.211 pb = 0.349475 %[0m ) 128000 ( 202547 -> 64.9 % )
integration time:   ( 1s elapsed / 3s left ) [09:31:31]
[34m115368 pb[0m +- ( [31m272.613 pb = 0.236298 %[0m ) 256000 ( 401518 -> 64.5 % )
integration time:   ( 2s elapsed / 2s left ) [09:31:33]
[34m115452 pb[0m +- ( [31m219.204 pb = 0.189866 %[0m ) 384000 ( 600537 -> 64.4 % )
integration time:   ( 3s elapsed / 1s left ) [09:31:34]
[1m2_2__bb__bb__bb__bb[0m : [34m[1m115452 pb[0m +- ( [31m219.204 pb = 0.189866 %[0m ) [1m exp. eff: [31m8.15746 %[0m
Single_Process::CalculateTotalXSec(): Calculate xs for '2_2__b__b__b__b' (Comix)
Integration parameters: n_{min} = 1000, N_{opt} 7, N_{max} = 3, exponent = 1
Starting the calculation at 09:31:34. Lean back and enjoy ... .
[34m110344 pb[0m +- ( [31m10344.3 pb = 9.37457 %[0m ) 1000 ( 2079 -> 48.1 % )
full optimization:  ( 0s elapsed / 5s left ) [09:31:34]
[34m136442 pb[0m +- ( [31m12236.2 pb = 8.96812 %[0m ) 2000 ( 3742 -> 60.1 % )
full optimization:  ( 0s elapsed / 5s left ) [09:31:34]
[34m121542 pb[0m +- ( [31m5105.55 pb = 4.20065 %[0m ) 4000 ( 7360 -> 55.2 % )
full optimization:  ( 0s elapsed / 6s left ) [09:31:34]
[34m117908 pb[0m +- ( [31m2706.94 pb = 2.2958 %[0m ) 8000 ( 14998 -> 52.3 % )
full optimization:  ( 0s elapsed / 6s left ) [09:31:34]
[34m115126 pb[0m +- ( [31m1584.54 pb = 1.37635 %[0m ) 16000 ( 28501 -> 59.2 % )
full optimization:  ( 0s elapsed / 5s left ) [09:31:34]
[34m115493 pb[0m +- ( [31m978.196 pb = 0.846974 %[0m ) 32000 ( 53451 -> 64.1 % )
full optimization:  ( 0s elapsed / 5s left ) [09:31:34]
[34m115780 pb[0m +- ( [31m616.054 pb = 0.53209 %[0m ) 64000 ( 101932 -> 66 % )
full optimization:  ( 0s elapsed / 5s left ) [09:31:34]
[34m115202 pb[0m +- ( [31m397.041 pb = 0.344647 %[0m ) 128000 ( 198749 -> 66.1 % )
integration time:   ( 1s elapsed / 3s left ) [09:31:35]
[34m115234 pb[0m +- ( [31m269.264 pb = 0.233668 %[0m ) 256000 ( 397366 -> 64.9 % )
integration time:   ( 2s elapsed / 2s left ) [09:31:36]
[34m115470 pb[0m +- ( [31m217.097 pb = 0.188012 %[0m ) 384000 ( 595680 -> 64.8 % )
integration time:   ( 3s elapsed / 1s left ) [09:31:37]
[1m2_2__b__b__b__b[0m : [34m[1m115470 pb[0m +- ( [31m217.097 pb = 0.188012 %[0m ) [1m exp. eff: [31m9.84576 %[0m
Single_Process::CalculateTotalXSec(): Calculate xs for '2_2__b__bb__b__bb' (Comix)
Integration parameters: n_{min} = 1000, N_{opt} 7, N_{max} = 3, exponent = 1
Starting the calculation at 09:31:37. Lean back and enjoy ... .
[34m231115 pb[0m +- ( [31m25700.1 pb = 11.12 %[0m ) 1000 ( 2107 -> 47.4 % )
full optimization:  ( 0s elapsed / 5s left ) [09:31:37]
[34m286929 pb[0m +- ( [31m26161.4 pb = 9.11774 %[0m ) 2000 ( 3857 -> 57.1 % )
full optimization:  ( 0s elapsed / 7s left ) [09:31:37]
[34m272346 pb[0m +- ( [31m10837.5 pb = 3.9793 %[0m ) 4000 ( 7542 -> 54.2 % )
full optimization:  ( 0s elapsed / 6s left ) [09:31:37]
[34m269629 pb[0m +- ( [31m5655.98 pb = 2.09769 %[0m ) 8000 ( 14997 -> 53.6 % )
full optimization:  ( 0s elapsed / 6s left ) [09:31:37]
[34m264398 pb[0m +- ( [31m3212.83 pb = 1.21515 %[0m ) 16000 ( 29155 -> 56.5 % )
full optimization:  ( 0s elapsed / 5s left ) [09:31:37]
[34m264367 pb[0m +- ( [31m1929.46 pb = 0.729841 %[0m ) 32000 ( 54452 -> 63.2 % )
full optimization:  ( 0s elapsed / 5s left ) [09:31:38]
[34m262801 pb[0m +- ( [31m1179.48 pb = 0.44881 %[0m ) 64000 ( 103569 -> 65.1 % )
full optimization:  ( 0s elapsed / 5s left ) [09:31:38]
[34m262375 pb[0m +- ( [31m741.37 pb = 0.282561 %[0m ) 128000 ( 201056 -> 65.6 % )
integration time:   ( 1s elapsed / 3s left ) [09:31:38]
[34m262193 pb[0m +- ( [31m490.884 pb = 0.187222 %[0m ) 256000 ( 399012 -> 64.9 % )
integration time:   ( 2s elapsed / 2s left ) [09:31:40]
[34m262142 pb[0m +- ( [31m391.366 pb = 0.149295 %[0m ) 384000 ( 597166 -> 64.8 % )
integration time:   ( 3s elapsed / 1s left ) [09:31:41]
[1m2_2__b__bb__b__bb[0m : [34m[1m262142 pb[0m +- ( [31m391.366 pb = 0.149295 %[0m ) [1m exp. eff: [31m8.82873 %[0m
Process_Group::CalculateTotalXSec(): Calculate xs for '2_2__b__bb__j__j' (Comix)
Integration parameters: n_{min} = 1000, N_{opt} 7, N_{max} = 3, exponent = 1
Starting the calculation at 09:31:41. Lean back and enjoy ... .
[34m51039 pb[0m +- ( [31m4010.64 pb = 7.858 %[0m ) 1000 ( 1504 -> 66.4 % )
full optimization:  ( 0s elapsed / 5s left ) [09:31:41]
[34m58234.8 pb[0m +- ( [31m4299 pb = 7.38217 %[0m ) 2000 ( 2852 -> 74.1 % )
full optimization:  ( 0s elapsed / 10s left ) [09:31:41]
[34m53765.6 pb[0m +- ( [31m2005.03 pb = 3.7292 %[0m ) 4000 ( 5447 -> 77 % )
full optimization:  ( 0s elapsed / 8s left ) [09:31:41]
[34m52419.1 pb[0m +- ( [31m1172.78 pb = 2.23731 %[0m ) 8000 ( 10187 -> 84.3 % )
full optimization:  ( 0s elapsed / 8s left ) [09:31:41]
[34m51589.8 pb[0m +- ( [31m703.522 pb = 1.36368 %[0m ) 16000 ( 19361 -> 87.2 % )
full optimization:  ( 0s elapsed / 8s left ) [09:31:41]
[34m51167.2 pb[0m +- ( [31m433.819 pb = 0.847845 %[0m ) 32000 ( 37102 -> 90.1 % )
full optimization:  ( 0s elapsed / 8s left ) [09:31:41]
[34m51386 pb[0m +- ( [31m275.011 pb = 0.535186 %[0m ) 64000 ( 71908 -> 91.9 % )
full optimization:  ( 1s elapsed / 7s left ) [09:31:42]
[34m51422.5 pb[0m +- ( [31m178.076 pb = 0.3463 %[0m ) 128000 ( 140753 -> 92.9 % )
integration time:   ( 1s elapsed / 6s left ) [09:31:43]
[34m51242.7 pb[0m +- ( [31m121.226 pb = 0.236572 %[0m ) 256000 ( 279179 -> 92.6 % )
integration time:   ( 3s elapsed / 4s left ) [09:31:45]
[34m51271.4 pb[0m +- ( [31m97.831 pb = 0.19081 %[0m ) 384000 ( 417490 -> 92.5 % )
integration time:   ( 5s elapsed / 2s left ) [09:31:47]
[1m2_2__b__bb__j__j[0m : [34m[1m51271.4 pb[0m +- ( [31m97.831 pb = 0.19081 %[0m ) [1m exp. eff: [31m4.77847 %[0m
  reduce max for 2_2__b__bb__j__j to 0.712218 ( eps = 0.001 -> exp. eff 0.0670929 ) 
----------------------------------------------------------
-- SHERPA generates events with the following structure --
----------------------------------------------------------
Event generation   : Weighted
Perturbative       : Signal_Processes
Perturbative       : Hard_Decays
Perturbative       : Jet_Evolution:CSS
Perturbative       : Lepton_FS_QED_Corrections:Photons
Perturbative       : Multiple_Interactions:None
Perturbative       : Minimum_Bias:None
Hadronization      : Beam_Remnants:On
Hadronization      : Hadronization:Ahadic
Hadronization      : Hadron_Decays
Userhook           : 
---------------------------------------------------------
  Event 1 ( 0s elapsed / 16m 39s left ) -> ETA: Thu Mar 03 09:48  
  XS = 5.32121e+09 pb +- ( 5.32121e+09 pb = 99.99 % )  [1A  Event 2 ( 0s elapsed / 8m 19s left ) -> ETA: Thu Mar 03 09:40  
  XS = 1.77922e+10 pb +- ( 1.32062e+10 pb = 74.22 % )  [1A  Event 3 ( 0s elapsed / 11m 6s left ) -> ETA: Thu Mar 03 09:42  
  XS = 1.52505e+10 pb +- ( 1.1447e+10 pb = 75.05 % )  [1A  Event 4 ( 0s elapsed / 16m 39s left ) -> ETA: Thu Mar 03 09:48  
  XS = 1.33442e+10 pb +- ( 1.0095e+10 pb = 75.65 % )  [1A  Event 5 ( 0s elapsed / 13m 19s left ) -> ETA: Thu Mar 03 09:45  
  XS = 7.28434e+10 pb +- ( 6.01616e+10 pb = 82.59 % )  [1A  Event 6 ( 0s elapsed / 11m 6s left ) -> ETA: Thu Mar 03 09:42  
  XS = 6.55591e+10 pb +- ( 5.4301e+10 pb = 82.82 % )  [1A  Event 7 ( 0s elapsed / 11m 54s left ) -> ETA: Thu Mar 03 09:43  
  XS = 5.46326e+10 pb +- ( 4.54387e+10 pb = 83.17 % )  [1A  Event 8 ( 0s elapsed / 10m 24s left ) -> ETA: Thu Mar 03 09:42  
  XS = 5.05952e+10 pb +- ( 4.19921e+10 pb = 82.99 % )  [1A  Event 9 ( 0s elapsed / 9m 15s left ) -> ETA: Thu Mar 03 09:41  
  XS = 4.69813e+10 pb +- ( 3.90447e+10 pb = 83.1 % )  [1A  Event 10 ( 0s elapsed / 9m 59s left ) -> ETA: Thu Mar 03 09:41  
  XS = 4.38533e+10 pb +- ( 3.6483e+10 pb = 83.19 % )  [1A  Event 20 ( 0s elapsed / 9m 9s left ) -> ETA: Thu Mar 03 09:40  
  XS = 2.37774e+10 pb +- ( 1.89928e+10 pb = 79.87 % )  [1A  Event 30 ( 0s elapsed / 9m 59s left ) -> ETA: Thu Mar 03 09:41  
  XS = 3.41249e+10 pb +- ( 2.19943e+10 pb = 64.45 % )  [1A  Event 40 ( 0s elapsed / 9m 9s left ) -> ETA: Thu Mar 03 09:40  
  XS = 2.75782e+10 pb +- ( 1.65506e+10 pb = 60.01 % )  [1A  Event 50 ( 0s elapsed / 9m 39s left ) -> ETA: Thu Mar 03 09:41  
  XS = 2.2291e+10 pb +- ( 1.34156e+10 pb = 60.18 % )  [1A  Event 60 ( 0s elapsed / 9m 26s left ) -> ETA: Thu Mar 03 09:41  
  XS = 1.8539e+10 pb +- ( 1.11511e+10 pb = 60.14 % )  [1A  Event 70 ( 0s elapsed / 9m 31s left ) -> ETA: Thu Mar 03 09:41  
  XS = 1.60275e+10 pb +- ( 9.63339e+09 pb = 60.1 % )  [1A  Event 80 ( 0s elapsed / 9m 9s left ) -> ETA: Thu Mar 03 09:40  
  XS = 1.41023e+10 pb +- ( 8.47955e+09 pb = 60.12 % )  [1A  Event 90 ( 0s elapsed / 9m 26s left ) -> ETA: Thu Mar 03 09:41  
  XS = 1.36364e+10 pb +- ( 7.77549e+09 pb = 57.01 % )  [1A  Event 100 ( 0s elapsed / 9m 19s left ) -> ETA: Thu Mar 03 09:41  
  XS = 1.22217e+10 pb +- ( 6.95989e+09 pb = 56.94 % )  [1A  Event 200 ( 1s elapsed / 9m 23s left ) -> ETA: Thu Mar 03 09:41  
  XS = 8.18669e+09 pb +- ( 3.58771e+09 pb = 43.82 % )  [1A  Event 300 ( 1s elapsed / 9m 5s left ) -> ETA: Thu Mar 03 09:40  
  XS = 8.18628e+09 pb +- ( 2.7138e+09 pb = 33.15 % )  [1A  Event 400 ( 2s elapsed / 8m 57s left ) -> ETA: Thu Mar 03 09:40  
  XS = 8.96256e+09 pb +- ( 2.48489e+09 pb = 27.72 % )  [1A  Event 500 ( 2s elapsed / 8m 51s left ) -> ETA: Thu Mar 03 09:40  
  XS = 7.33855e+09 pb +- ( 1.96993e+09 pb = 26.84 % )  [1A  Event 600 ( 3s elapsed / 9m 3s left ) -> ETA: Thu Mar 03 09:40  
  XS = 6.69178e+09 pb +- ( 1.68381e+09 pb = 25.16 % )  [1A  Event 700 ( 3s elapsed / 8m 59s left ) -> ETA: Thu Mar 03 09:40  
  XS = 6.03618e+09 pb +- ( 1.46195e+09 pb = 24.21 % )  [1A  Event 800 ( 4s elapsed / 8m 59s left ) -> ETA: Thu Mar 03 09:40  
  XS = 5.68257e+09 pb +- ( 1.29679e+09 pb = 22.82 % )  [1A  Event 900 ( 4s elapsed / 9m left ) -> ETA: Thu Mar 03 09:40  
  XS = 5.37569e+09 pb +- ( 1.15412e+09 pb = 21.46 % )  [1A  Event 1000 ( 5s elapsed / 8m 59s left ) -> ETA: Thu Mar 03 09:40  
  XS = 5.58741e+09 pb +- ( 1.10854e+09 pb = 19.83 % )  [1A  Event 2000 ( 10s elapsed / 8m 50s left ) -> ETA: Thu Mar 03 09:40  
  XS = 4.80716e+09 pb +- ( 7.91823e+08 pb = 16.47 % )  [1A  Event 3000 ( 16s elapsed / 8m 49s left ) -> ETA: Thu Mar 03 09:40  
  XS = 4.5465e+09 pb +- ( 6.01057e+08 pb = 13.22 % )  [1A  Event 4000 ( 21s elapsed / 8m 42s left ) -> ETA: Thu Mar 03 09:40  
  XS = 3.99693e+09 pb +- ( 4.62434e+08 pb = 11.56 % )  [1AWarning: Kinematics_Generator::TransverseKinematicsHH: Not able to create the breakup kinematics for Particle List with 1 elements
[I] 1 ub                    5 (     ->    2) [( 6.1646e+02, 0.0000e+00, 0.0000e+00, 6.1646e+02), p^2=-3.4761e-08, m= 3.0000e-01] (  0,607) 0
 and Particle List with 1 elements
[I] 1 u                    13 (     ->    2) [( 6.5000e+03, 0.0000e+00, 0.0000e+00,-6.5000e+03), p^2= 0.0000e+00, m= 3.0000e-01] (605,  0) 1
 and the corresponding remnants are Particle List with 3 elements
[B] 1 ud_0                 53 (     ->     ) [( 5.2367e+03, 0.0000e+00, 0.0000e+00, 5.2367e+03), p^2= 6.3128e-01, m= 5.7933e-01] (  0,643) 0
[B] 1 u                    49 (     ->     ) [( 1.4115e+01, 0.0000e+00, 0.0000e+00, 1.4115e+01), p^2= 4.5866e-06, m= 0.0000e+00] (643,  0) 0
[B] 1 u                    52 (     ->     ) [( 6.3271e+02, 0.0000e+00, 0.0000e+00, 6.3271e+02), p^2= 9.2155e-03, m= 0.0000e+00] (607,  0) 0
 and Particle List with 1 elements
[B] 1 ud_0                 54 (     ->     ) [( 1.0059e-04, 0.0000e+00, 0.0000e+00,-3.2867e-05), p^2= 9.0375e-09, m= 5.7933e-01] (  0,605) 1

Warning in Remnant_Handler::MakeBeamBlobs: FillBlobs or CheckBreamBreakup failed. Will return new event
  Event 5000 ( 27s elapsed / 8m 40s left ) -> ETA: Thu Mar 03 09:40  
  XS = 4.09032e+09 pb +- ( 4.19844e+08 pb = 10.26 % )  [1A  Event 6000 ( 33s elapsed / 8m 39s left ) -> ETA: Thu Mar 03 09:40  
  XS = 3.99081e+09 pb +- ( 3.7006e+08 pb = 9.27 % )  [1A  Event 7000 ( 38s elapsed / 8m 32s left ) -> ETA: Thu Mar 03 09:40  
  XS = 4.09976e+09 pb +- ( 3.56695e+08 pb = 8.7 % )  [1A  Event 8000 ( 44s elapsed / 8m 26s left ) -> ETA: Thu Mar 03 09:40  
  XS = 4.47358e+09 pb +- ( 3.89948e+08 pb = 8.71 % )  [1A  Event 9000 ( 49s elapsed / 8m 24s left ) -> ETA: Thu Mar 03 09:41  
  XS = 4.40026e+09 pb +- ( 3.58707e+08 pb = 8.15 % )  [1A  Event 10000 ( 55s elapsed / 8m 20s left ) -> ETA: Thu Mar 03 09:41  
  XS = 4.498e+09 pb +- ( 3.44077e+08 pb = 7.64 % )  [1A  Event 20000 ( 1m 50s elapsed / 7m 22s left ) -> ETA: Thu Mar 03 09:40  
  XS = 4.66857e+09 pb +- ( 2.4728e+08 pb = 5.29 % )  [1AWarning: Kinematics_Generator::TransverseKinematicsHH: Not able to create the breakup kinematics for Particle List with 1 elements
[I] 1 u                     5 (     ->    2) [( 1.9177e+03,-7.4288e-08, 3.9199e-08, 1.9177e+03), p^2= 1.1459e-06, m= 3.0000e-01] (608,  0) 0
 and Particle List with 1 elements
[I] 1 u                    18 (     ->    2) [( 6.5000e+03, 0.0000e+00, 0.0000e+00,-6.5000e+03), p^2= 0.0000e+00, m= 3.0000e-01] (601,  0) 1
 and the corresponding remnants are Particle List with 1 elements
[B] 1 ud_0                 36 (     ->     ) [( 4.5823e+03, 7.4288e-08,-3.9199e-08, 4.5823e+03), p^2= 6.2062e-01, m= 5.7933e-01] (  0,608) 0
 and Particle List with 1 elements
[B] 1 ud_0                 37 (     ->     ) [( 9.8224e-05, 0.0000e+00, 0.0000e+00,-3.0504e-05), p^2= 8.7174e-09, m= 5.7933e-01] (  0,601) 1

Warning in Remnant_Handler::MakeBeamBlobs: FillBlobs or CheckBreamBreakup failed. Will return new event
  Event 30000 ( 2m 47s elapsed / 6m 30s left ) -> ETA: Thu Mar 03 09:41  
  XS = 4.50405e+09 pb +- ( 1.93652e+08 pb = 4.29 % )  [1A[34mDecay_Handler_Base::TreatInitialBlob[0m:([32m"Initial particle Delta(1232)++b not onshell: p^2=1.232 vs. m^2=1.232"[0m)
[34mDecay_Handler_Base::TreatInitialBlob[0m:([32m"Initial particle Delta(1232)++ not onshell: p^2=1.232 vs. m^2=1.232"[0m)
  Event 40000 ( 3m 43s elapsed / 5m 35s left ) -> ETA: Thu Mar 03 09:41  
  XS = 4.55604e+09 pb +- ( 1.68317e+08 pb = 3.69 % )  [1A  Event 50000 ( 4m 39s elapsed / 4m 39s left ) -> ETA: Thu Mar 03 09:41  
  XS = 4.52992e+09 pb +- ( 1.46505e+08 pb = 3.23 % )  [1A  Event 60000 ( 5m 34s elapsed / 3m 43s left ) -> ETA: Thu Mar 03 09:41  
  XS = 4.53559e+09 pb +- ( 1.32537e+08 pb = 2.92 % )  [1AWarning: Kinematics_Generator::TransverseKinematicsHH: Not able to create the breakup kinematics for Particle List with 1 elements
[I] 1 s                     6 (     ->    2) [( 3.3948e+03,-0.0000e+00,-0.0000e+00, 3.3948e+03), p^2= 0.0000e+00, m= 4.0000e-01] (601,  0) 0
 and Particle List with 1 elements
[I] 1 G                     5 (     ->    2) [( 6.5000e+03, 0.0000e+00, 0.0000e+00,-6.5000e+03), p^2= 0.0000e+00, m= 0.0000e+00] (603,601) 1
 and the corresponding remnants are Particle List with 3 elements
[B] 1 ud_0                 45 (     ->     ) [( 2.5314e+03, 0.0000e+00, 0.0000e+00, 2.5314e+03), p^2= 2.7950e-01, m= 5.7933e-01] (  0,601) 0
[B] 1 sb                   41 (     ->     ) [( 8.9856e+01, 0.0000e+00, 0.0000e+00, 8.9856e+01), p^2= 3.5217e-04, m= 0.0000e+00] (  0,632) 0
[B] 1 u                    44 (     ->     ) [( 4.8391e+02, 0.0000e+00, 0.0000e+00, 4.8391e+02), p^2= 1.0214e-02, m= 0.0000e+00] (632,  0) 0
 and Particle List with 2 elements
[B] 1 ud_0                 47 (     ->     ) [( 6.4838e-05, 0.0000e+00, 0.0000e+00,-3.0831e-05), p^2= 3.2534e-09, m= 5.7933e-01] (  0,603) 1
[B] 1 u                    46 (     ->     ) [( 6.4278e-05, 0.0000e+00, 0.0000e+00,-3.0565e-05), p^2= 3.1974e-09, m= 0.0000e+00] (601,  0) 1

Warning in Remnant_Handler::MakeBeamBlobs: FillBlobs or CheckBreamBreakup failed. Will return new event
  Event 70000 ( 6m 31s elapsed / 2m 47s left ) -> ETA: Thu Mar 03 09:41  
  XS = 4.49392e+09 pb +- ( 1.22792e+08 pb = 2.73 % )  [1A  Event 80000 ( 7m 27s elapsed / 1m 51s left ) -> ETA: Thu Mar 03 09:41  
  XS = 4.44319e+09 pb +- ( 1.13884e+08 pb = 2.56 % )  [1A  Event 90000 ( 8m 23s elapsed / 55s left ) -> ETA: Thu Mar 03 09:41  
  XS = 4.47012e+09 pb +- ( 1.08276e+08 pb = 2.42 % )  [1A[34mDecay_Handler_Base::TreatInitialBlob[0m:([32m"Initial particle Delta(1232)++b not onshell: p^2=1.232 vs. m^2=1.232"[0m)
Warning: Kinematics_Generator::TransverseKinematicsHH: Not able to create the breakup kinematics for Particle List with 1 elements
[I] 1 G                     6 (     ->    2) [( 9.1819e+02, 0.0000e+00, 0.0000e+00, 9.1819e+02), p^2= 0.0000e+00, m= 0.0000e+00] (609,612) 0
 and Particle List with 1 elements
[I] 1 G                     5 (     ->    2) [( 6.5000e+03, 0.0000e+00, 0.0000e+00,-6.5000e+03), p^2= 0.0000e+00, m= 0.0000e+00] (601,603) 1
 and the corresponding remnants are Particle List with 2 elements
[B] 1 ud_0                 35 (     ->     ) [( 5.4733e+03, 0.0000e+00, 0.0000e+00, 5.4733e+03), p^2= 7.2689e-01, m= 5.7933e-01] (  0,609) 0
[B] 1 u                    34 (     ->     ) [( 1.0850e+02, 0.0000e+00, 0.0000e+00, 1.0850e+02), p^2= 2.8567e-04, m= 0.0000e+00] (612,  0) 0
 and Particle List with 2 elements
[B] 1 uu_1                 37 (     ->     ) [( 7.6867e-05, 0.0000e+00, 0.0000e+00,-2.4286e-05), p^2= 5.3187e-09, m= 7.7133e-01] (  0,601) 1
[B] 1 d                    36 (     ->     ) [( 2.2130e-05, 0.0000e+00, 0.0000e+00,-6.9918e-06), p^2= 4.4085e-10, m= 0.0000e+00] (603,  0) 1

Warning in Remnant_Handler::MakeBeamBlobs: FillBlobs or CheckBreamBreakup failed. Will return new event
  Event 100000 ( 558 s total ) = 1.54689e+07 evts/day                    
In Event_Handler::Finish : Summarizing the run may take some time.
--------------------------------------------------------------------------
Nominal or variation name     XS [pb]      RelDev  AbsErr [pb]      RelErr
--------------------------------------------------------------------------
[1mNominal                  [0m[34m[1m 4.45428e+09[0m[33m         0 %[31m  1.02122e+08      2.29 %[0m
--------------------------------------------------------------------------
Return_Value::PrintStatistics(): Statistics {
  Generated events: 100000
  New events {
    From "Beam_Remnants:On": 4 (100007) -> 0 %
  }
  Retried events {
    From "Hadron_Decays": 3 (111223) -> 0 %
  }
  Retried phases {
    From "Hadron_Decay_Handler::RejectExclusiveChannelsFromFragmentation": 4341 (0) -> 4341.
  }
  Retried methods {
    From "Decay_Channel::GenerateKinematics": 31 (29753631) -> 0 %
  }
}
Blob_List: Momentum Fail Statistics {
}
Decay_Channel: Kinematics max fail statistics {
  B --> D*(2007)b D+ K pi+b  maximal fail by 1.97882.
  B(s) --> f(0)(980) J/psi(1S)  maximal fail by 2.71442.
  B+ --> D*(2007) Db K+ pi  maximal fail by 2.45206.
  B+ --> D*(2007)b D+ K pi  maximal fail by 1.93506.
  B+ --> D*(2010)+ D*(2010)+b K pi+  maximal fail by 1.40476.
  B+ --> D+ D+b K pi+  maximal fail by 1.30451.
  D --> Kb pi+ pi+b pi  maximal fail by 1.33701.
}
WARNING: You are using an unsupported development branch.
------------------------------------------------------------------------
[1mPlease cite the publications listed in '[31mReferences.tex[0m[1m'.[0m
  Extract the bibtex list by running 'get_bibtex References.tex'
  or email the file to 'slaclib2@slac.stanford.edu', subject 'generate'.
------------------------------------------------------------------------
Reconnection_Handler::~Reconnection_Handler: reconnection handler winds down with 0 errors overall.
Gluon_Splitter::~Gluon_Splitter with 10879 kinematic fails.
Singlet_Checker::~Singlet_Checker with 10 errors in total.
Time: 10m 31s on Thu Mar  3 09:41:06 2022
 (User: 10m 26s, System: 1s, Children User: 0s, Children System: 0s)
